<?xml version="1.0" encoding="utf-8"?>
<!DOCTYPE eagle SYSTEM "eagle.dtd">
<eagle version="9.6.2">
<drawing>
<settings>
<setting alwaysvectorfont="no"/>
<setting verticaltext="up"/>
</settings>
<grid distance="0.1" unitdist="inch" unit="inch" style="lines" multiple="1" display="no" altdistance="0.01" altunitdist="inch" altunit="inch"/>
<layers>
<layer number="1" name="Top" color="4" fill="1" visible="no" active="no"/>
<layer number="2" name="Route2" color="1" fill="3" visible="no" active="no"/>
<layer number="3" name="Route3" color="4" fill="3" visible="no" active="no"/>
<layer number="14" name="Route14" color="1" fill="6" visible="no" active="no"/>
<layer number="15" name="Route15" color="4" fill="6" visible="no" active="no"/>
<layer number="16" name="Bottom" color="1" fill="1" visible="no" active="no"/>
<layer number="17" name="Pads" color="2" fill="1" visible="no" active="no"/>
<layer number="18" name="Vias" color="2" fill="1" visible="no" active="no"/>
<layer number="19" name="Unrouted" color="6" fill="1" visible="no" active="no"/>
<layer number="20" name="Dimension" color="15" fill="1" visible="no" active="no"/>
<layer number="21" name="tPlace" color="7" fill="1" visible="no" active="no"/>
<layer number="22" name="bPlace" color="7" fill="1" visible="no" active="no"/>
<layer number="23" name="tOrigins" color="15" fill="1" visible="no" active="no"/>
<layer number="24" name="bOrigins" color="15" fill="1" visible="no" active="no"/>
<layer number="25" name="tNames" color="7" fill="1" visible="no" active="no"/>
<layer number="26" name="bNames" color="7" fill="1" visible="no" active="no"/>
<layer number="27" name="tValues" color="7" fill="1" visible="no" active="no"/>
<layer number="28" name="bValues" color="7" fill="1" visible="no" active="no"/>
<layer number="29" name="tStop" color="7" fill="3" visible="no" active="no"/>
<layer number="30" name="bStop" color="7" fill="6" visible="no" active="no"/>
<layer number="31" name="tCream" color="7" fill="4" visible="no" active="no"/>
<layer number="32" name="bCream" color="7" fill="5" visible="no" active="no"/>
<layer number="33" name="tFinish" color="6" fill="3" visible="no" active="no"/>
<layer number="34" name="bFinish" color="6" fill="6" visible="no" active="no"/>
<layer number="35" name="tGlue" color="7" fill="4" visible="no" active="no"/>
<layer number="36" name="bGlue" color="7" fill="5" visible="no" active="no"/>
<layer number="37" name="tTest" color="7" fill="1" visible="no" active="no"/>
<layer number="38" name="bTest" color="7" fill="1" visible="no" active="no"/>
<layer number="39" name="tKeepout" color="4" fill="11" visible="no" active="no"/>
<layer number="40" name="bKeepout" color="1" fill="11" visible="no" active="no"/>
<layer number="41" name="tRestrict" color="4" fill="10" visible="no" active="no"/>
<layer number="42" name="bRestrict" color="1" fill="10" visible="no" active="no"/>
<layer number="43" name="vRestrict" color="2" fill="10" visible="no" active="no"/>
<layer number="44" name="Drills" color="7" fill="1" visible="no" active="no"/>
<layer number="45" name="Holes" color="7" fill="1" visible="no" active="no"/>
<layer number="46" name="Milling" color="3" fill="1" visible="no" active="no"/>
<layer number="47" name="Measures" color="7" fill="1" visible="no" active="no"/>
<layer number="48" name="Document" color="7" fill="1" visible="no" active="no"/>
<layer number="49" name="Reference" color="7" fill="1" visible="no" active="no"/>
<layer number="50" name="dxf" color="7" fill="1" visible="no" active="no"/>
<layer number="51" name="tDocu" color="7" fill="1" visible="no" active="no"/>
<layer number="52" name="bDocu" color="7" fill="1" visible="no" active="no"/>
<layer number="53" name="tGND_GNDA" color="7" fill="1" visible="no" active="no"/>
<layer number="54" name="bGND_GNDA" color="7" fill="1" visible="no" active="no"/>
<layer number="56" name="wert" color="7" fill="1" visible="no" active="no"/>
<layer number="57" name="tCAD" color="7" fill="1" visible="no" active="no"/>
<layer number="59" name="tCarbon" color="7" fill="1" visible="no" active="no"/>
<layer number="60" name="bCarbon" color="7" fill="1" visible="no" active="no"/>
<layer number="88" name="SimResults" color="9" fill="1" visible="yes" active="yes"/>
<layer number="89" name="SimProbes" color="9" fill="1" visible="yes" active="yes"/>
<layer number="90" name="Modules" color="5" fill="1" visible="yes" active="yes"/>
<layer number="91" name="Nets" color="2" fill="1" visible="yes" active="yes"/>
<layer number="92" name="Busses" color="1" fill="1" visible="yes" active="yes"/>
<layer number="93" name="Pins" color="2" fill="1" visible="no" active="yes"/>
<layer number="94" name="Symbols" color="4" fill="1" visible="yes" active="yes"/>
<layer number="95" name="Names" color="7" fill="1" visible="yes" active="yes"/>
<layer number="96" name="Values" color="7" fill="1" visible="yes" active="yes"/>
<layer number="97" name="Info" color="7" fill="1" visible="yes" active="yes"/>
<layer number="98" name="Guide" color="6" fill="1" visible="yes" active="yes"/>
<layer number="99" name="SpiceOrder" color="5" fill="1" visible="no" active="no"/>
<layer number="100" name="Muster" color="7" fill="1" visible="yes" active="yes"/>
<layer number="101" name="Patch_Top" color="7" fill="1" visible="yes" active="yes"/>
<layer number="102" name="Vscore" color="7" fill="1" visible="yes" active="yes"/>
<layer number="103" name="tMap" color="7" fill="1" visible="yes" active="yes"/>
<layer number="104" name="Name" color="7" fill="1" visible="yes" active="yes"/>
<layer number="105" name="tPlate" color="7" fill="1" visible="yes" active="yes"/>
<layer number="106" name="bPlate" color="7" fill="1" visible="yes" active="yes"/>
<layer number="107" name="Crop" color="7" fill="1" visible="yes" active="yes"/>
<layer number="108" name="centerline" color="7" fill="1" visible="yes" active="yes"/>
<layer number="109" name="fp9" color="7" fill="1" visible="no" active="no"/>
<layer number="110" name="110" color="7" fill="1" visible="no" active="no"/>
<layer number="111" name="111" color="7" fill="1" visible="no" active="no"/>
<layer number="112" name="tSilk" color="7" fill="1" visible="no" active="no"/>
<layer number="113" name="ReferenceLS" color="7" fill="1" visible="no" active="no"/>
<layer number="114" name="Panel" color="11" fill="1" visible="yes" active="yes"/>
<layer number="116" name="Patch_BOT" color="7" fill="1" visible="yes" active="yes"/>
<layer number="118" name="Rect_Pads" color="7" fill="1" visible="no" active="no"/>
<layer number="121" name="_tsilk" color="7" fill="1" visible="yes" active="yes"/>
<layer number="122" name="_bsilk" color="7" fill="1" visible="yes" active="yes"/>
<layer number="123" name="tTestmark" color="7" fill="1" visible="no" active="no"/>
<layer number="124" name="bTestmark" color="7" fill="1" visible="no" active="no"/>
<layer number="125" name="_tNames" color="7" fill="1" visible="yes" active="yes"/>
<layer number="126" name="_bNames" color="7" fill="1" visible="no" active="no"/>
<layer number="127" name="_tValues" color="7" fill="1" visible="no" active="no"/>
<layer number="128" name="_bValues" color="7" fill="1" visible="no" active="no"/>
<layer number="129" name="Mask" color="7" fill="1" visible="yes" active="yes"/>
<layer number="131" name="prix" color="7" fill="1" visible="yes" active="yes"/>
<layer number="132" name="test" color="7" fill="1" visible="yes" active="yes"/>
<layer number="144" name="Drill_legend" color="7" fill="1" visible="yes" active="yes"/>
<layer number="150" name="Notes" color="7" fill="1" visible="yes" active="yes"/>
<layer number="151" name="HeatSink" color="7" fill="1" visible="yes" active="yes"/>
<layer number="152" name="_bDocu" color="7" fill="1" visible="no" active="no"/>
<layer number="153" name="FabDoc1" color="6" fill="1" visible="no" active="no"/>
<layer number="154" name="FabDoc2" color="2" fill="1" visible="no" active="no"/>
<layer number="155" name="FabDoc3" color="7" fill="15" visible="no" active="no"/>
<layer number="199" name="Contour" color="7" fill="1" visible="no" active="no"/>
<layer number="200" name="200bmp" color="1" fill="10" visible="yes" active="yes"/>
<layer number="201" name="201bmp" color="2" fill="10" visible="yes" active="yes"/>
<layer number="202" name="202bmp" color="7" fill="1" visible="yes" active="yes"/>
<layer number="203" name="203bmp" color="7" fill="1" visible="yes" active="yes"/>
<layer number="204" name="204bmp" color="7" fill="1" visible="yes" active="yes"/>
<layer number="205" name="205bmp" color="7" fill="1" visible="yes" active="yes"/>
<layer number="206" name="206bmp" color="7" fill="1" visible="yes" active="yes"/>
<layer number="207" name="207bmp" color="7" fill="1" visible="yes" active="yes"/>
<layer number="208" name="208bmp" color="7" fill="1" visible="yes" active="yes"/>
<layer number="209" name="209bmp" color="7" fill="1" visible="yes" active="yes"/>
<layer number="210" name="210bmp" color="7" fill="1" visible="yes" active="yes"/>
<layer number="211" name="211bmp" color="7" fill="1" visible="yes" active="yes"/>
<layer number="212" name="212bmp" color="7" fill="1" visible="yes" active="yes"/>
<layer number="213" name="213bmp" color="7" fill="1" visible="yes" active="yes"/>
<layer number="214" name="214bmp" color="7" fill="1" visible="yes" active="yes"/>
<layer number="215" name="215bmp" color="7" fill="1" visible="yes" active="yes"/>
<layer number="216" name="216bmp" color="7" fill="1" visible="yes" active="yes"/>
<layer number="217" name="217bmp" color="7" fill="1" visible="yes" active="yes"/>
<layer number="218" name="218bmp" color="7" fill="1" visible="yes" active="yes"/>
<layer number="219" name="219bmp" color="7" fill="1" visible="yes" active="yes"/>
<layer number="220" name="220bmp" color="7" fill="1" visible="yes" active="yes"/>
<layer number="221" name="221bmp" color="7" fill="1" visible="yes" active="yes"/>
<layer number="222" name="222bmp" color="7" fill="1" visible="yes" active="yes"/>
<layer number="223" name="223bmp" color="7" fill="1" visible="yes" active="yes"/>
<layer number="224" name="224bmp" color="7" fill="1" visible="yes" active="yes"/>
<layer number="225" name="225bmp" color="7" fill="1" visible="yes" active="yes"/>
<layer number="226" name="226bmp" color="7" fill="1" visible="yes" active="yes"/>
<layer number="227" name="227bmp" color="7" fill="1" visible="yes" active="yes"/>
<layer number="228" name="228bmp" color="7" fill="1" visible="yes" active="yes"/>
<layer number="229" name="229bmp" color="7" fill="1" visible="yes" active="yes"/>
<layer number="230" name="230bmp" color="7" fill="1" visible="yes" active="yes"/>
<layer number="231" name="Eagle3D_PG1" color="7" fill="1" visible="no" active="no"/>
<layer number="232" name="Eagle3D_PG2" color="7" fill="1" visible="no" active="no"/>
<layer number="233" name="Eagle3D_PG3" color="7" fill="1" visible="no" active="no"/>
<layer number="248" name="Housing" color="7" fill="1" visible="no" active="no"/>
<layer number="249" name="Edge" color="7" fill="1" visible="no" active="no"/>
<layer number="250" name="Descript" color="7" fill="1" visible="yes" active="yes"/>
<layer number="251" name="SMDround" color="7" fill="1" visible="yes" active="yes"/>
<layer number="254" name="cooling" color="7" fill="1" visible="yes" active="yes"/>
<layer number="255" name="routoute" color="7" fill="1" visible="yes" active="yes"/>
</layers>
<schematic xreflabel="%F%N/%S.%C%R" xrefpart="/%S.%C%R">
<libraries>
<library name="Teensy356">
<packages>
<package name="TEENSY_3.5/3.6">
<pad name="1/TX" x="-22.86" y="-7.62" drill="0.9652"/>
<pad name="2" x="-20.32" y="-7.62" drill="0.9652"/>
<pad name="3/CANTX" x="-17.78" y="-7.62" drill="0.9652"/>
<pad name="4/CANRX" x="-15.24" y="-7.62" drill="0.9652"/>
<pad name="5" x="-12.7" y="-7.62" drill="0.9652"/>
<pad name="6" x="-10.16" y="-7.62" drill="0.9652"/>
<pad name="7" x="-7.62" y="-7.62" drill="0.9652"/>
<pad name="8" x="-5.08" y="-7.62" drill="0.9652"/>
<pad name="9/CS" x="-2.54" y="-7.62" drill="0.9652"/>
<pad name="10/CS" x="0" y="-7.62" drill="0.9652"/>
<pad name="11/MOSI" x="2.54" y="-7.62" drill="0.9652"/>
<pad name="12/MISO" x="5.08" y="-7.62" drill="0.9652"/>
<pad name="13/SCK" x="5.08" y="7.62" drill="0.9652"/>
<pad name="14/A0" x="2.54" y="7.62" drill="0.9652"/>
<pad name="15/A1" x="0" y="7.62" drill="0.9652"/>
<pad name="16/A2" x="-2.54" y="7.62" drill="0.9652"/>
<pad name="17/A3" x="-5.08" y="7.62" drill="0.9652"/>
<pad name="18/A4/SDA" x="-7.62" y="7.62" drill="0.9652"/>
<pad name="19/A5/SCL" x="-10.16" y="7.62" drill="0.9652"/>
<pad name="20/A6" x="-12.7" y="7.62" drill="0.9652"/>
<pad name="21/A7" x="-15.24" y="7.62" drill="0.9652"/>
<pad name="22/A8" x="-17.78" y="7.62" drill="0.9652"/>
<pad name="23/A9" x="-20.32" y="7.62" drill="0.9652"/>
<pad name="0/RX" x="-25.4" y="-7.62" drill="0.9652"/>
<pad name="3V3_LO" x="-22.86" y="7.62" drill="0.9652"/>
<pad name="AGND" x="-25.4" y="7.62" drill="0.9652"/>
<pad name="GND" x="-27.94" y="-7.62" drill="0.9652"/>
<pad name="VIN" x="-27.94" y="7.62" drill="0.9652"/>
<pad name="3V3" x="7.62" y="-7.62" drill="0.9652"/>
<pad name="GND2" x="7.62" y="7.62" drill="0.9652"/>
<pad name="24" x="10.16" y="-7.62" drill="0.9652"/>
<pad name="25" x="12.7" y="-7.62" drill="0.9652"/>
<pad name="26" x="15.24" y="-7.62" drill="0.9652"/>
<pad name="27" x="17.78" y="-7.62" drill="0.9652"/>
<pad name="28" x="20.32" y="-7.62" drill="0.9652"/>
<pad name="29" x="22.86" y="-7.62" drill="0.9652"/>
<pad name="30" x="25.4" y="-7.62" drill="0.9652"/>
<pad name="31/A12" x="27.94" y="-7.62" drill="0.9652"/>
<pad name="32/A13" x="30.48" y="-7.62" drill="0.9652"/>
<pad name="33/A14" x="30.48" y="7.62" drill="0.9652"/>
<pad name="34/A15" x="27.94" y="7.62" drill="0.9652"/>
<pad name="35/A16" x="25.4" y="7.62" drill="0.9652"/>
<pad name="36/A17" x="22.86" y="7.62" drill="0.9652"/>
<pad name="37/A18" x="20.32" y="7.62" drill="0.9652"/>
<pad name="38/A19" x="17.78" y="7.62" drill="0.9652"/>
<pad name="39/A20" x="15.24" y="7.62" drill="0.9652"/>
<pad name="21/DAC0" x="12.7" y="7.62" drill="0.9652"/>
<pad name="A22/DAC1" x="10.16" y="7.62" drill="0.9652"/>
<pad name="VBAT" x="17.78" y="-5.08" drill="0.9652"/>
<pad name="GND3" x="17.78" y="0" drill="0.9652"/>
<pad name="PROG" x="17.78" y="2.54" drill="0.9652"/>
<pad name="3V3_2" x="17.78" y="-2.54" drill="0.9652"/>
<pad name="RESET" x="17.78" y="5.08" drill="0.9652"/>
<pad name="VUSB" x="-25.4" y="5.08" drill="0.9652"/>
<pad name="AREF" x="-20.32" y="5.08" drill="0.9652"/>
<pad name="A10" x="-17.78" y="5.08" drill="0.9652"/>
<pad name="A11" x="-15.24" y="5.08" drill="0.9652"/>
<pad name="U5V" x="-21.59" y="-4.445" drill="0.9652"/>
<pad name="UD-" x="-19.05" y="-4.445" drill="0.9652"/>
<pad name="UD+" x="-16.51" y="-4.445" drill="0.9652"/>
<pad name="UGND1" x="-13.97" y="-4.445" drill="0.9652"/>
<pad name="UGND2" x="-11.43" y="-4.445" drill="0.9652"/>
<wire x1="-29.21" y1="8.89" x2="31.75" y2="8.89" width="0.3048" layer="21"/>
<wire x1="31.75" y1="-8.89" x2="-29.21" y2="-8.89" width="0.3048" layer="21"/>
<wire x1="8.636" y1="-6.35" x2="-3.556" y2="-6.35" width="0.3048" layer="21"/>
<wire x1="-3.556" y1="-6.35" x2="-3.81" y2="-6.096" width="0.3048" layer="21" curve="-90"/>
<wire x1="-3.81" y1="-6.096" x2="-3.81" y2="6.096" width="0.3048" layer="21"/>
<wire x1="-3.81" y1="6.096" x2="-3.556" y2="6.35" width="0.3048" layer="21" curve="-90"/>
<wire x1="-3.556" y1="6.35" x2="8.636" y2="6.35" width="0.3048" layer="21"/>
<wire x1="8.636" y1="6.35" x2="8.89" y2="6.096" width="0.3048" layer="21" curve="-90"/>
<wire x1="8.89" y1="6.096" x2="8.89" y2="-6.096" width="0.3048" layer="21"/>
<wire x1="8.89" y1="-6.096" x2="8.636" y2="-6.35" width="0.3048" layer="21" curve="-90"/>
<wire x1="31.75" y1="8.89" x2="31.75" y2="-8.89" width="0.3048" layer="21"/>
<wire x1="-25.4" y1="3.81" x2="-27.305" y2="3.81" width="0.3048" layer="21"/>
<wire x1="-27.305" y1="3.81" x2="-28.575" y2="3.81" width="0.3048" layer="21"/>
<wire x1="-28.575" y1="3.81" x2="-29.21" y2="3.81" width="0.3048" layer="21"/>
<wire x1="-29.21" y1="3.81" x2="-30.48" y2="3.81" width="0.3048" layer="21"/>
<wire x1="-30.48" y1="3.81" x2="-30.48" y2="-3.81" width="0.3048" layer="21"/>
<wire x1="-30.48" y1="-3.81" x2="-29.21" y2="-3.81" width="0.3048" layer="21"/>
<wire x1="-29.21" y1="-3.81" x2="-28.575" y2="-3.81" width="0.3048" layer="21"/>
<wire x1="-28.575" y1="-3.81" x2="-27.305" y2="-3.81" width="0.3048" layer="21"/>
<wire x1="-27.305" y1="-3.81" x2="-25.4" y2="-3.81" width="0.3048" layer="21"/>
<wire x1="-25.4" y1="-3.81" x2="-25.4" y2="-3.175" width="0.3048" layer="21"/>
<wire x1="-25.4" y1="-3.175" x2="-25.4" y2="-2.2225" width="0.3048" layer="21"/>
<wire x1="-25.4" y1="-2.2225" x2="-25.4" y2="-1.905" width="0.3048" layer="21"/>
<wire x1="-25.4" y1="-1.905" x2="-25.4" y2="-1.27" width="0.3048" layer="21"/>
<wire x1="-25.4" y1="-1.27" x2="-25.4" y2="-0.635" width="0.3048" layer="21"/>
<wire x1="-25.4" y1="-0.635" x2="-25.4" y2="0" width="0.3048" layer="21"/>
<wire x1="-25.4" y1="0" x2="-25.4" y2="0.635" width="0.3048" layer="21"/>
<wire x1="-25.4" y1="0.635" x2="-25.4" y2="1.27" width="0.3048" layer="21"/>
<wire x1="-25.4" y1="1.27" x2="-25.4" y2="1.905" width="0.3048" layer="21"/>
<wire x1="-25.4" y1="1.905" x2="-25.4" y2="2.2225" width="0.3048" layer="21"/>
<wire x1="-25.4" y1="2.2225" x2="-25.4" y2="3.175" width="0.3048" layer="21"/>
<wire x1="-25.4" y1="3.175" x2="-25.4" y2="3.81" width="0.3048" layer="21"/>
<wire x1="-29.21" y1="8.89" x2="-29.21" y2="3.81" width="0.3048" layer="21"/>
<wire x1="-29.21" y1="-8.89" x2="-29.21" y2="-3.81" width="0.3048" layer="21"/>
<wire x1="19.05" y1="5.08" x2="19.05" y2="6.096" width="0.127" layer="21"/>
<wire x1="19.05" y1="6.096" x2="19.304" y2="6.35" width="0.127" layer="21" curve="-90"/>
<wire x1="19.304" y1="6.35" x2="21.59" y2="6.35" width="0.127" layer="21"/>
<wire x1="21.59" y1="6.35" x2="23.495" y2="6.35" width="0.3048" layer="21"/>
<wire x1="23.495" y1="6.35" x2="25.4" y2="6.35" width="0.127" layer="21"/>
<wire x1="25.4" y1="6.35" x2="27.6225" y2="6.35" width="0.3048" layer="21"/>
<wire x1="27.6225" y1="6.35" x2="30.861" y2="6.35" width="0.3048" layer="21"/>
<wire x1="30.861" y1="6.35" x2="31.115" y2="6.096" width="0.3048" layer="21" curve="-90"/>
<wire x1="31.115" y1="6.096" x2="31.115" y2="5.3975" width="0.3048" layer="21"/>
<wire x1="31.115" y1="5.3975" x2="30.7975" y2="5.08" width="0.3048" layer="21" curve="-90"/>
<wire x1="30.7975" y1="5.08" x2="29.845" y2="5.08" width="0.3048" layer="21"/>
<wire x1="29.845" y1="5.08" x2="29.21" y2="4.445" width="0.3048" layer="21" curve="90"/>
<wire x1="29.21" y1="4.445" x2="29.21" y2="3.175" width="0.3048" layer="21"/>
<wire x1="29.21" y1="3.175" x2="29.21" y2="2.54" width="0.3048" layer="21"/>
<wire x1="29.21" y1="2.54" x2="29.21" y2="1.905" width="0.3048" layer="21"/>
<wire x1="29.21" y1="1.905" x2="29.21" y2="1.27" width="0.3048" layer="21"/>
<wire x1="29.21" y1="1.27" x2="29.21" y2="0.635" width="0.3048" layer="21"/>
<wire x1="29.21" y1="0.635" x2="29.21" y2="0" width="0.3048" layer="21"/>
<wire x1="29.21" y1="0" x2="29.21" y2="-0.635" width="0.3048" layer="21"/>
<wire x1="29.21" y1="-0.635" x2="29.21" y2="-1.27" width="0.3048" layer="21"/>
<wire x1="29.21" y1="-1.27" x2="29.21" y2="-1.905" width="0.3048" layer="21"/>
<wire x1="29.21" y1="-1.905" x2="29.21" y2="-2.54" width="0.3048" layer="21"/>
<wire x1="29.21" y1="-2.54" x2="29.21" y2="-3.175" width="0.3048" layer="21"/>
<wire x1="29.21" y1="-3.175" x2="29.21" y2="-3.81" width="0.3048" layer="21"/>
<wire x1="29.21" y1="-3.81" x2="29.21" y2="-4.445" width="0.3048" layer="21"/>
<wire x1="29.21" y1="-4.445" x2="29.21" y2="-5.08" width="0.3048" layer="21"/>
<wire x1="29.21" y1="-5.08" x2="29.845" y2="-5.715" width="0.3048" layer="21" curve="90"/>
<wire x1="29.845" y1="-5.715" x2="30.7975" y2="-5.715" width="0.3048" layer="21"/>
<wire x1="30.7975" y1="-5.715" x2="31.115" y2="-6.0325" width="0.3048" layer="21" curve="-90"/>
<wire x1="31.115" y1="-6.0325" x2="31.115" y2="-6.096" width="0.3048" layer="21"/>
<wire x1="31.115" y1="-6.096" x2="30.861" y2="-6.35" width="0.3048" layer="21" curve="-90"/>
<wire x1="30.861" y1="-6.35" x2="19.304" y2="-6.35" width="0.3048" layer="21"/>
<wire x1="19.304" y1="-6.35" x2="19.05" y2="-6.096" width="0.3048" layer="21" curve="-90"/>
<wire x1="19.05" y1="-6.096" x2="19.05" y2="5.08" width="0.3048" layer="21"/>
<wire x1="29.21" y1="3.175" x2="30.861" y2="3.175" width="0.127" layer="21"/>
<wire x1="30.861" y1="3.175" x2="31.115" y2="2.921" width="0.127" layer="21" curve="-90"/>
<wire x1="31.115" y1="2.921" x2="31.115" y2="2.794" width="0.127" layer="21"/>
<wire x1="31.115" y1="2.794" x2="30.861" y2="2.54" width="0.127" layer="21" curve="-90"/>
<wire x1="30.861" y1="2.54" x2="29.21" y2="2.54" width="0.127" layer="21"/>
<wire x1="29.21" y1="1.905" x2="30.861" y2="1.905" width="0.127" layer="21"/>
<wire x1="30.861" y1="1.905" x2="31.115" y2="1.651" width="0.127" layer="21" curve="-90"/>
<wire x1="31.115" y1="1.651" x2="31.115" y2="1.524" width="0.127" layer="21"/>
<wire x1="31.115" y1="1.524" x2="30.861" y2="1.27" width="0.127" layer="21" curve="-90"/>
<wire x1="30.861" y1="1.27" x2="29.21" y2="1.27" width="0.127" layer="21"/>
<wire x1="29.21" y1="0.635" x2="30.861" y2="0.635" width="0.127" layer="21"/>
<wire x1="30.861" y1="0.635" x2="31.115" y2="0.381" width="0.127" layer="21" curve="-90"/>
<wire x1="31.115" y1="0.381" x2="31.115" y2="0.254" width="0.127" layer="21"/>
<wire x1="31.115" y1="0.254" x2="30.861" y2="0" width="0.127" layer="21" curve="-90"/>
<wire x1="30.861" y1="0" x2="29.21" y2="0" width="0.127" layer="21"/>
<wire x1="29.21" y1="-0.635" x2="30.861" y2="-0.635" width="0.127" layer="21"/>
<wire x1="30.861" y1="-0.635" x2="31.115" y2="-0.889" width="0.127" layer="21" curve="-90"/>
<wire x1="31.115" y1="-0.889" x2="31.115" y2="-1.016" width="0.127" layer="21"/>
<wire x1="31.115" y1="-1.016" x2="30.861" y2="-1.27" width="0.127" layer="21" curve="-90"/>
<wire x1="30.861" y1="-1.27" x2="29.21" y2="-1.27" width="0.127" layer="21"/>
<wire x1="29.21" y1="-1.905" x2="30.861" y2="-1.905" width="0.127" layer="21"/>
<wire x1="30.861" y1="-1.905" x2="31.115" y2="-2.159" width="0.127" layer="21" curve="-90"/>
<wire x1="31.115" y1="-2.159" x2="31.115" y2="-2.286" width="0.127" layer="21"/>
<wire x1="31.115" y1="-2.286" x2="30.861" y2="-2.54" width="0.127" layer="21" curve="-90"/>
<wire x1="30.861" y1="-2.54" x2="29.21" y2="-2.54" width="0.127" layer="21"/>
<wire x1="29.21" y1="-3.175" x2="30.861" y2="-3.175" width="0.127" layer="21"/>
<wire x1="30.861" y1="-3.175" x2="31.115" y2="-3.429" width="0.127" layer="21" curve="-90"/>
<wire x1="31.115" y1="-3.429" x2="31.115" y2="-3.556" width="0.127" layer="21"/>
<wire x1="31.115" y1="-3.556" x2="30.861" y2="-3.81" width="0.127" layer="21" curve="-90"/>
<wire x1="30.861" y1="-3.81" x2="29.21" y2="-3.81" width="0.127" layer="21"/>
<wire x1="29.21" y1="-4.445" x2="30.861" y2="-4.445" width="0.127" layer="21"/>
<wire x1="30.861" y1="-4.445" x2="31.115" y2="-4.699" width="0.127" layer="21" curve="-90"/>
<wire x1="31.115" y1="-4.699" x2="31.115" y2="-4.826" width="0.127" layer="21"/>
<wire x1="31.115" y1="-4.826" x2="30.861" y2="-5.08" width="0.127" layer="21" curve="-90"/>
<wire x1="30.861" y1="-5.08" x2="29.21" y2="-5.08" width="0.127" layer="21"/>
<wire x1="12.954" y1="-2.54" x2="16.256" y2="-2.54" width="0.127" layer="21"/>
<wire x1="16.256" y1="-2.54" x2="16.51" y2="-2.286" width="0.127" layer="21" curve="90"/>
<wire x1="16.51" y1="-2.286" x2="16.51" y2="2.286" width="0.127" layer="21"/>
<wire x1="16.51" y1="2.286" x2="16.256" y2="2.54" width="0.127" layer="21" curve="90"/>
<wire x1="16.256" y1="2.54" x2="12.954" y2="2.54" width="0.127" layer="21"/>
<wire x1="12.954" y1="2.54" x2="12.7" y2="2.286" width="0.127" layer="21" curve="90"/>
<wire x1="12.7" y1="2.286" x2="12.7" y2="-2.286" width="0.127" layer="21"/>
<wire x1="12.7" y1="-2.286" x2="12.954" y2="-2.54" width="0.127" layer="21" curve="90"/>
<wire x1="14.605" y1="-1.905" x2="13.335" y2="-0.635" width="0.3048" layer="21" curve="-90"/>
<wire x1="13.335" y1="-0.635" x2="13.335" y2="0.635" width="0.3048" layer="21"/>
<wire x1="13.335" y1="0.635" x2="14.605" y2="1.905" width="0.3048" layer="21" curve="-90"/>
<wire x1="14.605" y1="1.905" x2="15.875" y2="0.635" width="0.3048" layer="21" curve="-90"/>
<wire x1="15.875" y1="0.635" x2="15.875" y2="-0.635" width="0.3048" layer="21"/>
<wire x1="15.875" y1="-0.635" x2="14.605" y2="-1.905" width="0.3048" layer="21" curve="-90"/>
<wire x1="-22.86" y1="-3.175" x2="-20.32" y2="-3.175" width="0.127" layer="21"/>
<wire x1="-20.32" y1="-3.175" x2="-10.16" y2="-3.175" width="0.127" layer="21"/>
<wire x1="-10.16" y1="-3.175" x2="-10.16" y2="-5.715" width="0.127" layer="21"/>
<wire x1="-10.16" y1="-5.715" x2="-20.32" y2="-5.715" width="0.127" layer="21"/>
<wire x1="-20.32" y1="-5.715" x2="-22.86" y2="-5.715" width="0.127" layer="21"/>
<wire x1="-22.86" y1="-5.715" x2="-22.86" y2="-3.175" width="0.127" layer="21"/>
<wire x1="-20.32" y1="-3.175" x2="-20.32" y2="-5.715" width="0.127" layer="21"/>
<wire x1="-25.4" y1="0" x2="-24.13" y2="0" width="0.127" layer="21"/>
<wire x1="-25.4" y1="0.635" x2="-24.13" y2="0.635" width="0.127" layer="21"/>
<wire x1="-25.4" y1="1.27" x2="-24.13" y2="1.27" width="0.127" layer="21"/>
<wire x1="-25.4" y1="-0.635" x2="-24.13" y2="-0.635" width="0.127" layer="21"/>
<wire x1="-25.4" y1="-1.27" x2="-24.13" y2="-1.27" width="0.127" layer="21"/>
<text x="2.69875" y="0" size="1.778" layer="21" ratio="12" distance="25" align="center">TEENSY
3.6</text>
<wire x1="19.05" y1="5.08" x2="21.336" y2="5.08" width="0.3048" layer="21"/>
<wire x1="21.336" y1="5.08" x2="21.59" y2="5.334" width="0.3048" layer="21" curve="90"/>
<wire x1="21.59" y1="5.334" x2="21.59" y2="6.35" width="0.3048" layer="21"/>
<wire x1="23.495" y1="6.35" x2="23.495" y2="5.334" width="0.3048" layer="21"/>
<wire x1="23.495" y1="5.334" x2="23.749" y2="5.08" width="0.3048" layer="21" curve="90"/>
<wire x1="23.749" y1="5.08" x2="25.146" y2="5.08" width="0.3048" layer="21"/>
<wire x1="25.146" y1="5.08" x2="25.4" y2="5.334" width="0.3048" layer="21" curve="90"/>
<wire x1="25.4" y1="5.334" x2="25.4" y2="6.35" width="0.3048" layer="21"/>
<wire x1="-25.4" y1="1.905" x2="-24.13" y2="1.905" width="0.127" layer="21"/>
<wire x1="-24.13" y1="1.905" x2="-24.13" y2="3.175" width="0.127" layer="21"/>
<wire x1="-24.13" y1="3.175" x2="-25.4" y2="3.175" width="0.127" layer="21"/>
<wire x1="-25.4" y1="-1.905" x2="-24.13" y2="-1.905" width="0.127" layer="21"/>
<wire x1="-24.13" y1="-1.905" x2="-24.13" y2="-3.175" width="0.127" layer="21"/>
<wire x1="-24.13" y1="-3.175" x2="-25.4" y2="-3.175" width="0.127" layer="21"/>
<wire x1="-28.575" y1="3.81" x2="-28.575" y2="5.08" width="0.127" layer="21"/>
<wire x1="-28.575" y1="5.08" x2="-27.305" y2="5.08" width="0.127" layer="21"/>
<wire x1="-27.305" y1="5.08" x2="-27.305" y2="3.81" width="0.127" layer="21"/>
<wire x1="-28.575" y1="-3.81" x2="-28.575" y2="-5.08" width="0.127" layer="21"/>
<wire x1="-28.575" y1="-5.08" x2="-27.305" y2="-5.08" width="0.127" layer="21"/>
<wire x1="-27.305" y1="-5.08" x2="-27.305" y2="-3.81" width="0.127" layer="21"/>
<wire x1="-29.845" y1="3.175" x2="-28.2575" y2="3.175" width="0.127" layer="21"/>
<wire x1="-28.2575" y1="3.175" x2="-27.94" y2="2.8575" width="0.127" layer="21" curve="-90"/>
<wire x1="-27.94" y1="2.8575" x2="-27.94" y2="2.2225" width="0.127" layer="21"/>
<wire x1="-27.94" y1="2.2225" x2="-28.2575" y2="1.905" width="0.127" layer="21" curve="-90"/>
<wire x1="-28.2575" y1="1.905" x2="-29.845" y2="1.905" width="0.127" layer="21"/>
<wire x1="-29.845" y1="-3.175" x2="-28.2575" y2="-3.175" width="0.127" layer="21"/>
<wire x1="-28.2575" y1="-3.175" x2="-27.94" y2="-2.8575" width="0.127" layer="21" curve="90"/>
<wire x1="-27.94" y1="-2.8575" x2="-27.94" y2="-2.2225" width="0.127" layer="21"/>
<wire x1="-27.94" y1="-2.2225" x2="-28.2575" y2="-1.905" width="0.127" layer="21" curve="90"/>
<wire x1="-28.2575" y1="-1.905" x2="-29.845" y2="-1.905" width="0.127" layer="21"/>
<wire x1="-29.845" y1="3.175" x2="-29.845" y2="1.905" width="0.127" layer="21"/>
<wire x1="-29.845" y1="-1.905" x2="-29.845" y2="-3.175" width="0.127" layer="21"/>
<wire x1="-5.715" y1="-5.715" x2="-5.334" y2="-5.715" width="0.127" layer="21"/>
<wire x1="-5.334" y1="-5.715" x2="-5.08" y2="-5.461" width="0.127" layer="21" curve="90"/>
<wire x1="-5.08" y1="-5.461" x2="-5.08" y2="-5.08" width="0.127" layer="21"/>
<wire x1="-5.08" y1="-5.08" x2="-5.08" y2="-4.445" width="0.127" layer="21"/>
<wire x1="-5.08" y1="-4.445" x2="-5.08" y2="-3.81" width="0.127" layer="21"/>
<wire x1="-5.08" y1="-3.81" x2="-5.08" y2="-3.175" width="0.127" layer="21"/>
<wire x1="-5.08" y1="-3.175" x2="-5.08" y2="-2.794" width="0.127" layer="21"/>
<wire x1="-5.08" y1="-2.794" x2="-5.334" y2="-2.54" width="0.127" layer="21" curve="90"/>
<wire x1="-5.334" y1="-2.54" x2="-5.715" y2="-2.54" width="0.127" layer="21"/>
<wire x1="-5.715" y1="-2.54" x2="-6.35" y2="-2.54" width="0.127" layer="21"/>
<wire x1="-6.35" y1="-2.54" x2="-6.985" y2="-2.54" width="0.127" layer="21"/>
<wire x1="-6.985" y1="-2.54" x2="-7.62" y2="-2.54" width="0.127" layer="21"/>
<wire x1="-7.62" y1="-2.54" x2="-8.001" y2="-2.54" width="0.127" layer="21"/>
<wire x1="-8.001" y1="-2.54" x2="-8.255" y2="-2.794" width="0.127" layer="21" curve="90"/>
<wire x1="-8.255" y1="-2.794" x2="-8.255" y2="-3.175" width="0.127" layer="21"/>
<wire x1="-8.255" y1="-3.175" x2="-8.255" y2="-3.81" width="0.127" layer="21"/>
<wire x1="-8.255" y1="-3.81" x2="-8.255" y2="-4.445" width="0.127" layer="21"/>
<wire x1="-8.255" y1="-4.445" x2="-8.255" y2="-5.08" width="0.127" layer="21"/>
<wire x1="-8.255" y1="-5.08" x2="-8.255" y2="-5.461" width="0.127" layer="21"/>
<wire x1="-8.255" y1="-5.461" x2="-8.001" y2="-5.715" width="0.127" layer="21" curve="90"/>
<wire x1="-8.001" y1="-5.715" x2="-7.62" y2="-5.715" width="0.127" layer="21"/>
<wire x1="-7.62" y1="-5.715" x2="-6.985" y2="-5.715" width="0.127" layer="21"/>
<wire x1="-6.985" y1="-5.715" x2="-6.35" y2="-5.715" width="0.127" layer="21"/>
<wire x1="-6.35" y1="-5.715" x2="-5.715" y2="-5.715" width="0.127" layer="21"/>
<wire x1="-13.335" y1="1.016" x2="-13.335" y2="-1.016" width="0.127" layer="21"/>
<wire x1="-13.335" y1="-1.016" x2="-13.081" y2="-1.27" width="0.127" layer="21" curve="90"/>
<wire x1="-13.081" y1="-1.27" x2="-11.049" y2="-1.27" width="0.127" layer="21"/>
<wire x1="-11.049" y1="-1.27" x2="-10.795" y2="-1.016" width="0.127" layer="21" curve="90"/>
<wire x1="-10.795" y1="-1.016" x2="-10.795" y2="1.016" width="0.127" layer="21"/>
<wire x1="-10.795" y1="1.016" x2="-11.049" y2="1.27" width="0.127" layer="21" curve="90"/>
<wire x1="-11.049" y1="1.27" x2="-13.081" y2="1.27" width="0.127" layer="21"/>
<wire x1="-13.081" y1="1.27" x2="-13.335" y2="1.016" width="0.127" layer="21" curve="90"/>
<wire x1="20.0025" y1="-2.159" x2="20.0025" y2="-2.6035" width="0.127" layer="21"/>
<wire x1="20.0025" y1="-2.6035" x2="20.2565" y2="-2.8575" width="0.127" layer="21" curve="90"/>
<wire x1="20.2565" y1="-2.8575" x2="21.336" y2="-2.8575" width="0.127" layer="21"/>
<wire x1="21.336" y1="-2.8575" x2="21.59" y2="-2.6035" width="0.127" layer="21" curve="90"/>
<wire x1="21.59" y1="-2.6035" x2="21.59" y2="-2.159" width="0.127" layer="21"/>
<wire x1="21.59" y1="-2.159" x2="21.336" y2="-1.905" width="0.127" layer="21" curve="90"/>
<wire x1="21.336" y1="-1.905" x2="20.2565" y2="-1.905" width="0.127" layer="21"/>
<wire x1="20.2565" y1="-1.905" x2="20.0025" y2="-2.159" width="0.127" layer="21" curve="90"/>
<wire x1="20.0025" y1="-3.81" x2="20.0025" y2="-5.3975" width="0.127" layer="21"/>
<wire x1="20.0025" y1="-5.3975" x2="21.59" y2="-5.3975" width="0.127" layer="21"/>
<wire x1="-5.08" y1="-3.81" x2="-4.7625" y2="-3.81" width="0.127" layer="21"/>
<wire x1="-5.08" y1="-4.445" x2="-4.7625" y2="-4.445" width="0.127" layer="21"/>
<wire x1="-5.08" y1="-5.08" x2="-4.7625" y2="-5.08" width="0.127" layer="21"/>
<wire x1="-5.08" y1="-3.175" x2="-4.7625" y2="-3.175" width="0.127" layer="21"/>
<wire x1="-5.715" y1="-2.54" x2="-5.715" y2="-2.2225" width="0.127" layer="21"/>
<wire x1="-6.35" y1="-2.54" x2="-6.35" y2="-2.2225" width="0.127" layer="21"/>
<wire x1="-6.985" y1="-2.54" x2="-6.985" y2="-2.2225" width="0.127" layer="21"/>
<wire x1="-7.62" y1="-2.54" x2="-7.62" y2="-2.2225" width="0.127" layer="21"/>
<wire x1="-8.255" y1="-3.175" x2="-8.5725" y2="-3.175" width="0.127" layer="21"/>
<wire x1="-8.255" y1="-3.81" x2="-8.5725" y2="-3.81" width="0.127" layer="21"/>
<wire x1="-8.255" y1="-4.445" x2="-8.5725" y2="-4.445" width="0.127" layer="21"/>
<wire x1="-8.255" y1="-5.08" x2="-8.5725" y2="-5.08" width="0.127" layer="21"/>
<wire x1="-5.715" y1="-5.715" x2="-5.715" y2="-6.0325" width="0.127" layer="21"/>
<wire x1="-6.35" y1="-5.715" x2="-6.35" y2="-6.0325" width="0.127" layer="21"/>
<wire x1="-6.985" y1="-5.715" x2="-6.985" y2="-6.0325" width="0.127" layer="21"/>
<wire x1="-7.62" y1="-5.715" x2="-7.62" y2="-6.0325" width="0.127" layer="21"/>
<wire x1="27.6225" y1="6.35" x2="27.6225" y2="5.3975" width="0.127" layer="21"/>
<wire x1="27.6225" y1="5.3975" x2="27.94" y2="5.08" width="0.127" layer="21" curve="90"/>
<wire x1="27.94" y1="5.08" x2="28.8925" y2="5.08" width="0.127" layer="21"/>
<wire x1="28.8925" y1="5.08" x2="28.8925" y2="5.3975" width="0.127" layer="21"/>
<wire x1="28.8925" y1="5.3975" x2="29.21" y2="5.715" width="0.127" layer="21" curve="-90"/>
<wire x1="29.21" y1="5.715" x2="29.5275" y2="5.715" width="0.127" layer="21"/>
<wire x1="-25.4" y1="1.27" x2="-26.67" y2="1.27" width="0.127" layer="21"/>
<wire x1="-26.67" y1="1.27" x2="-26.67" y2="3.175" width="0.127" layer="21"/>
<wire x1="-26.67" y1="3.175" x2="-26.204921875" y2="3.175" width="0.127" layer="21"/>
<wire x1="-26.204921875" y1="3.175" x2="-25.94074375" y2="3.033615625" width="0.127" layer="21" curve="-56.310402"/>
<wire x1="-25.94074375" y1="3.033615625" x2="-25.4" y2="2.2225" width="0.127" layer="21"/>
<wire x1="-25.4" y1="-1.27" x2="-26.67" y2="-1.27" width="0.127" layer="21"/>
<wire x1="-26.67" y1="-1.27" x2="-26.67" y2="-3.175" width="0.127" layer="21"/>
<wire x1="-26.67" y1="-3.175" x2="-26.204921875" y2="-3.175" width="0.127" layer="21"/>
<wire x1="-26.204921875" y1="-3.175" x2="-25.94074375" y2="-3.033615625" width="0.127" layer="21" curve="56.310402"/>
<wire x1="-25.94074375" y1="-3.033615625" x2="-25.4" y2="-2.2225" width="0.127" layer="21"/>
</package>
</packages>
<symbols>
<symbol name="TEENSY_3.5/3.6">
<wire x1="-15.24" y1="25.4" x2="15.24" y2="25.4" width="0.254" layer="94"/>
<wire x1="15.24" y1="25.4" x2="15.24" y2="-58.42" width="0.254" layer="94"/>
<wire x1="-15.24" y1="25.4" x2="-15.24" y2="-58.42" width="0.254" layer="94"/>
<pin name="1/TX" x="-20.32" y="7.62" visible="pin" length="middle"/>
<pin name="2" x="-20.32" y="5.08" visible="pin" length="middle"/>
<pin name="3/CANTX" x="-20.32" y="2.54" visible="pin" length="middle"/>
<pin name="4/CANRX" x="-20.32" y="0" visible="pin" length="middle"/>
<pin name="0/RX" x="-20.32" y="10.16" visible="pin" length="middle"/>
<pin name="5" x="-20.32" y="-2.54" visible="pin" length="middle"/>
<pin name="6" x="-20.32" y="-5.08" visible="pin" length="middle"/>
<pin name="7" x="-20.32" y="-7.62" visible="pin" length="middle"/>
<pin name="8" x="-20.32" y="-10.16" visible="pin" length="middle"/>
<pin name="9/CS" x="-20.32" y="-12.7" visible="pin" length="middle"/>
<pin name="10/CS" x="-20.32" y="-15.24" visible="pin" length="middle"/>
<pin name="11/MOSI" x="-20.32" y="-17.78" visible="pin" length="middle"/>
<pin name="12/MISO" x="-20.32" y="-20.32" visible="pin" length="middle"/>
<pin name="3V3" x="-20.32" y="-22.86" visible="pin" length="middle"/>
<pin name="24" x="-20.32" y="-25.4" visible="pin" length="middle"/>
<pin name="25" x="-20.32" y="-27.94" visible="pin" length="middle"/>
<pin name="26" x="-20.32" y="-30.48" visible="pin" length="middle"/>
<pin name="27" x="-20.32" y="-33.02" visible="pin" length="middle"/>
<pin name="28" x="-20.32" y="-35.56" visible="pin" length="middle"/>
<pin name="29" x="-20.32" y="-38.1" visible="pin" length="middle"/>
<pin name="30" x="-20.32" y="-40.64" visible="pin" length="middle"/>
<pin name="31/A12" x="-20.32" y="-43.18" visible="pin" length="middle"/>
<pin name="32/A13" x="-20.32" y="-45.72" visible="pin" length="middle"/>
<pin name="GND" x="-20.32" y="12.7" visible="pin" length="middle"/>
<wire x1="-15.24" y1="-58.42" x2="15.24" y2="-58.42" width="0.254" layer="94"/>
<pin name="VIN" x="20.32" y="12.7" visible="pin" length="middle" rot="R180"/>
<pin name="AGND" x="20.32" y="10.16" visible="pin" length="middle" rot="R180"/>
<pin name="3V3_LO" x="20.32" y="7.62" visible="pin" length="middle" rot="R180"/>
<pin name="23/A9" x="20.32" y="5.08" visible="pin" length="middle" rot="R180"/>
<pin name="22/A8" x="20.32" y="2.54" visible="pin" length="middle" rot="R180"/>
<pin name="21/A7" x="20.32" y="0" visible="pin" length="middle" rot="R180"/>
<pin name="20/A6" x="20.32" y="-2.54" visible="pin" length="middle" rot="R180"/>
<pin name="19/A5/SCL" x="20.32" y="-5.08" visible="pin" length="middle" rot="R180"/>
<pin name="18/A4/SDA" x="20.32" y="-7.62" visible="pin" length="middle" rot="R180"/>
<pin name="17/A3" x="20.32" y="-10.16" visible="pin" length="middle" rot="R180"/>
<pin name="16/A2" x="20.32" y="-12.7" visible="pin" length="middle" rot="R180"/>
<pin name="15/A1" x="20.32" y="-15.24" visible="pin" length="middle" rot="R180"/>
<pin name="14/A0" x="20.32" y="-17.78" visible="pin" length="middle" rot="R180"/>
<pin name="13/SCK" x="20.32" y="-20.32" visible="pin" length="middle" rot="R180"/>
<pin name="GND2" x="20.32" y="-22.86" visible="pin" length="middle" rot="R180"/>
<pin name="A22/DAC1" x="20.32" y="-25.4" visible="pin" length="middle" rot="R180"/>
<pin name="A21/DAC0" x="20.32" y="-27.94" visible="pin" length="middle" rot="R180"/>
<pin name="39/A20" x="20.32" y="-30.48" visible="pin" length="middle" rot="R180"/>
<pin name="38/A19" x="20.32" y="-33.02" visible="pin" length="middle" rot="R180"/>
<pin name="37/A18" x="20.32" y="-35.56" visible="pin" length="middle" rot="R180"/>
<pin name="36/A17" x="20.32" y="-38.1" visible="pin" length="middle" rot="R180"/>
<pin name="35/A16" x="20.32" y="-40.64" visible="pin" length="middle" rot="R180"/>
<pin name="34/A15" x="20.32" y="-43.18" visible="pin" length="middle" rot="R180"/>
<pin name="33/A14" x="20.32" y="-45.72" visible="pin" length="middle" rot="R180"/>
<pin name="VUSB" x="12.7" y="30.48" visible="pin" length="middle" rot="R270"/>
<pin name="AREF" x="10.16" y="30.48" visible="pin" length="middle" rot="R270"/>
<pin name="A10" x="7.62" y="30.48" visible="pin" length="middle" rot="R270"/>
<pin name="A11" x="5.08" y="30.48" visible="pin" length="middle" rot="R270"/>
<pin name="U5V" x="-12.7" y="30.48" visible="pin" length="middle" rot="R270"/>
<pin name="UD-" x="-10.16" y="30.48" visible="pin" length="middle" rot="R270"/>
<pin name="UD+" x="-7.62" y="30.48" visible="pin" length="middle" rot="R270"/>
<pin name="UGND1" x="-5.08" y="30.48" visible="pin" length="middle" rot="R270"/>
<pin name="UGND2" x="-2.54" y="30.48" visible="pin" length="middle" rot="R270"/>
<pin name="GND3" x="0" y="-63.5" visible="pin" length="middle" rot="R90"/>
<pin name="3V3_2" x="-2.54" y="-63.5" visible="pin" length="middle" rot="R90"/>
<pin name="PROG" x="2.54" y="-63.5" visible="pin" length="middle" rot="R90"/>
<pin name="RESET" x="5.08" y="-63.5" visible="pin" length="middle" rot="R90"/>
<pin name="VBAT" x="-5.08" y="-63.5" visible="pin" length="middle" rot="R90"/>
</symbol>
</symbols>
<devicesets>
<deviceset name="TEENSY_3.5/3.6">
<gates>
<gate name="G$1" symbol="TEENSY_3.5/3.6" x="0" y="15.24"/>
</gates>
<devices>
<device name="" package="TEENSY_3.5/3.6">
<connects>
<connect gate="G$1" pin="0/RX" pad="0/RX"/>
<connect gate="G$1" pin="1/TX" pad="1/TX"/>
<connect gate="G$1" pin="10/CS" pad="10/CS"/>
<connect gate="G$1" pin="11/MOSI" pad="11/MOSI"/>
<connect gate="G$1" pin="12/MISO" pad="12/MISO"/>
<connect gate="G$1" pin="13/SCK" pad="13/SCK"/>
<connect gate="G$1" pin="14/A0" pad="14/A0"/>
<connect gate="G$1" pin="15/A1" pad="15/A1"/>
<connect gate="G$1" pin="16/A2" pad="16/A2"/>
<connect gate="G$1" pin="17/A3" pad="17/A3"/>
<connect gate="G$1" pin="18/A4/SDA" pad="18/A4/SDA"/>
<connect gate="G$1" pin="19/A5/SCL" pad="19/A5/SCL"/>
<connect gate="G$1" pin="2" pad="2"/>
<connect gate="G$1" pin="20/A6" pad="20/A6"/>
<connect gate="G$1" pin="21/A7" pad="21/A7"/>
<connect gate="G$1" pin="22/A8" pad="22/A8"/>
<connect gate="G$1" pin="23/A9" pad="23/A9"/>
<connect gate="G$1" pin="24" pad="24"/>
<connect gate="G$1" pin="25" pad="25"/>
<connect gate="G$1" pin="26" pad="26"/>
<connect gate="G$1" pin="27" pad="27"/>
<connect gate="G$1" pin="28" pad="28"/>
<connect gate="G$1" pin="29" pad="29"/>
<connect gate="G$1" pin="3/CANTX" pad="3/CANTX"/>
<connect gate="G$1" pin="30" pad="30"/>
<connect gate="G$1" pin="31/A12" pad="31/A12"/>
<connect gate="G$1" pin="32/A13" pad="32/A13"/>
<connect gate="G$1" pin="33/A14" pad="33/A14"/>
<connect gate="G$1" pin="34/A15" pad="34/A15"/>
<connect gate="G$1" pin="35/A16" pad="35/A16"/>
<connect gate="G$1" pin="36/A17" pad="36/A17"/>
<connect gate="G$1" pin="37/A18" pad="37/A18"/>
<connect gate="G$1" pin="38/A19" pad="38/A19"/>
<connect gate="G$1" pin="39/A20" pad="39/A20"/>
<connect gate="G$1" pin="3V3" pad="3V3"/>
<connect gate="G$1" pin="3V3_2" pad="3V3_2"/>
<connect gate="G$1" pin="3V3_LO" pad="3V3_LO"/>
<connect gate="G$1" pin="4/CANRX" pad="4/CANRX"/>
<connect gate="G$1" pin="5" pad="5"/>
<connect gate="G$1" pin="6" pad="6"/>
<connect gate="G$1" pin="7" pad="7"/>
<connect gate="G$1" pin="8" pad="8"/>
<connect gate="G$1" pin="9/CS" pad="9/CS"/>
<connect gate="G$1" pin="A10" pad="A10"/>
<connect gate="G$1" pin="A11" pad="A11"/>
<connect gate="G$1" pin="A21/DAC0" pad="21/DAC0"/>
<connect gate="G$1" pin="A22/DAC1" pad="A22/DAC1"/>
<connect gate="G$1" pin="AGND" pad="AGND"/>
<connect gate="G$1" pin="AREF" pad="AREF"/>
<connect gate="G$1" pin="GND" pad="GND"/>
<connect gate="G$1" pin="GND2" pad="GND2"/>
<connect gate="G$1" pin="GND3" pad="GND3"/>
<connect gate="G$1" pin="PROG" pad="PROG"/>
<connect gate="G$1" pin="RESET" pad="RESET"/>
<connect gate="G$1" pin="U5V" pad="U5V"/>
<connect gate="G$1" pin="UD+" pad="UD+"/>
<connect gate="G$1" pin="UD-" pad="UD-"/>
<connect gate="G$1" pin="UGND1" pad="UGND1"/>
<connect gate="G$1" pin="UGND2" pad="UGND2"/>
<connect gate="G$1" pin="VBAT" pad="VBAT"/>
<connect gate="G$1" pin="VIN" pad="VIN"/>
<connect gate="G$1" pin="VUSB" pad="VUSB"/>
</connects>
<technologies>
<technology name=""/>
</technologies>
</device>
</devices>
</deviceset>
</devicesets>
</library>
<library name="cherrymx">
<description>Cherry MX Keyswitch PCB footprints</description>
<packages>
<package name="CHERRY-MX">
<description>Cherry MX Keyswitch footprint</description>
<wire x1="-7.62" y1="7.62" x2="7.62" y2="7.62" width="0.127" layer="21"/>
<wire x1="7.62" y1="7.62" x2="7.62" y2="-7.62" width="0.127" layer="21"/>
<wire x1="7.62" y1="-7.62" x2="-7.62" y2="-7.62" width="0.127" layer="21"/>
<wire x1="-7.62" y1="-7.62" x2="-7.62" y2="7.62" width="0.127" layer="21"/>
<pad name="SW1" x="-3.81" y="2.54" drill="1.1" diameter="2"/>
<pad name="SW2" x="2.54" y="5.08" drill="1.1" diameter="2"/>
<pad name="P$3" x="-5.08" y="0" drill="1.7144" diameter="1.9304"/>
<pad name="P$4" x="5.08" y="0" drill="1.7144" diameter="1.9304"/>
<hole x="0" y="0" drill="4.0004"/>
</package>
</packages>
<symbols>
<symbol name="CHERRY-MX">
<description>Basic part for Cherry MX series keyswitch</description>
<text x="-6.096" y="5.842" size="1.4224" layer="95">CHERRY-MX</text>
<pin name="PIN-1" x="-10.16" y="2.54" length="middle"/>
<pin name="PIN-2" x="-10.16" y="-2.54" length="middle"/>
<text x="-5.08" y="-7.62" size="1.778" layer="95">&gt;NAME</text>
<wire x1="-5.08" y1="5.08" x2="-5.08" y2="-5.08" width="0.254" layer="94"/>
<wire x1="-5.08" y1="-5.08" x2="5.08" y2="-5.08" width="0.254" layer="94"/>
<wire x1="5.08" y1="-5.08" x2="5.08" y2="5.08" width="0.254" layer="94"/>
<wire x1="5.08" y1="5.08" x2="-5.08" y2="5.08" width="0.254" layer="94"/>
</symbol>
</symbols>
<devicesets>
<deviceset name="CHERRY-MX">
<description>Cherry MX series keyswitch</description>
<gates>
<gate name="G$1" symbol="CHERRY-MX" x="-2.54" y="-25.4"/>
</gates>
<devices>
<device name="" package="CHERRY-MX">
<connects>
<connect gate="G$1" pin="PIN-1" pad="SW1"/>
<connect gate="G$1" pin="PIN-2" pad="SW2"/>
</connects>
<technologies>
<technology name=""/>
</technologies>
</device>
</devices>
</deviceset>
</devicesets>
</library>
<library name="spook">
<packages>
<package name="WAVESHARE_EPAPER_2.9IN">
<pad name="BUSY" x="0" y="0" drill="1"/>
<pad name="RST" x="0" y="-2.45" drill="1"/>
<pad name="DC" x="0" y="-4.9" drill="1"/>
<pad name="CS" x="0" y="-7.35" drill="1"/>
<pad name="CLK" x="0" y="-9.8" drill="1"/>
<pad name="DIN" x="0" y="-12.25" drill="1"/>
<pad name="GND" x="0" y="-14.7" drill="1"/>
<pad name="VCC" x="0" y="-17.15" drill="1"/>
<text x="2.45" y="0" size="1.27" layer="21" align="center-left">BUSY</text>
<text x="2.45" y="-2.45" size="1.27" layer="21" align="center-left">RST</text>
<text x="2.45" y="-4.9" size="1.27" layer="21" align="center-left">DC</text>
<text x="2.45" y="-7.35" size="1.27" layer="21" align="center-left">CS</text>
<text x="2.45" y="-9.8" size="1.27" layer="21" align="center-left">CLK</text>
<text x="2.45" y="-12.25" size="1.27" layer="21" align="center-left">DIN</text>
<text x="2.45" y="-14.7" size="1.27" layer="21" align="center-left">GND</text>
<text x="2.45" y="-17.15" size="1.27" layer="21" align="center-left">VCC</text>
</package>
<package name="ENCODER">
<pad name="OUT_B" x="-7.5" y="-2.5" drill="1.1"/>
<pad name="OUT_A" x="-7.5" y="2.5" drill="1.1"/>
<pad name="GND_OUT" x="-7.5" y="0" drill="1.1" shape="square"/>
<pad name="SW" x="7" y="2.5" drill="1.1"/>
<pad name="GND_SW" x="7" y="-2.5" drill="1.1" shape="square"/>
<hole x="0" y="4.65" drill="2.1"/>
<hole x="0" y="-4.65" drill="2.1"/>
<circle x="0" y="0" radius="15" width="0.2" layer="25"/>
<text x="-15" y="2" size="1.27" layer="21">OUT A</text>
<text x="-15" y="-3" size="1.27" layer="21">OUT B</text>
<text x="-15" y="-0.5" size="1.27" layer="21">GND</text>
<text x="10" y="-3" size="1.27" layer="21">GND</text>
<text x="10" y="2" size="1.27" layer="21">SWITCH</text>
</package>
</packages>
<symbols>
<symbol name="WAVESHARE_EPAPER_2.9IN">
<wire x1="0" y1="0" x2="0" y2="-22.86" width="0.254" layer="94"/>
<wire x1="0" y1="-22.86" x2="17.78" y2="-22.86" width="0.254" layer="94"/>
<wire x1="17.78" y1="-22.86" x2="17.78" y2="0" width="0.254" layer="94"/>
<wire x1="17.78" y1="0" x2="0" y2="0" width="0.254" layer="94"/>
<text x="12.7" y="-17.78" size="1.778" layer="94" rot="R90">Waveshare</text>
<text x="15.24" y="-17.78" size="1.778" layer="94" rot="R90">E-Paper 2.9"</text>
<pin name="BUSY" x="-5.08" y="-2.54" length="middle"/>
<pin name="RST" x="-5.08" y="-5.08" length="middle"/>
<pin name="DC" x="-5.08" y="-7.62" length="middle"/>
<pin name="CS" x="-5.08" y="-10.16" length="middle"/>
<pin name="CLK" x="-5.08" y="-12.7" length="middle"/>
<pin name="DIN" x="-5.08" y="-15.24" length="middle"/>
<pin name="GND" x="-5.08" y="-17.78" length="middle"/>
<pin name="VCC" x="-5.08" y="-20.32" length="middle"/>
</symbol>
<symbol name="ENCODER">
<circle x="0" y="0" radius="7.184203125" width="0.254" layer="94"/>
<wire x1="0" y1="7.62" x2="0" y2="5.08" width="0.254" layer="94"/>
<pin name="GND_SW" x="-12.7" y="-5.08" length="middle"/>
<pin name="SW" x="-12.7" y="-2.54" length="middle"/>
<pin name="GND_OUT" x="-12.7" y="0" length="middle"/>
<pin name="OUT_B" x="-12.7" y="2.54" length="middle"/>
<pin name="OUT_A" x="-12.7" y="5.08" length="middle"/>
</symbol>
</symbols>
<devicesets>
<deviceset name="WAVESHARE_EPAPER_2.9IN">
<gates>
<gate name="G$1" symbol="WAVESHARE_EPAPER_2.9IN" x="0" y="0"/>
</gates>
<devices>
<device name="" package="WAVESHARE_EPAPER_2.9IN">
<connects>
<connect gate="G$1" pin="BUSY" pad="BUSY"/>
<connect gate="G$1" pin="CLK" pad="CLK"/>
<connect gate="G$1" pin="CS" pad="CS"/>
<connect gate="G$1" pin="DC" pad="DC"/>
<connect gate="G$1" pin="DIN" pad="DIN"/>
<connect gate="G$1" pin="GND" pad="GND"/>
<connect gate="G$1" pin="RST" pad="RST"/>
<connect gate="G$1" pin="VCC" pad="VCC"/>
</connects>
<technologies>
<technology name=""/>
</technologies>
</device>
</devices>
</deviceset>
<deviceset name="ENCODER">
<gates>
<gate name="G$1" symbol="ENCODER" x="0" y="0"/>
</gates>
<devices>
<device name="" package="ENCODER">
<connects>
<connect gate="G$1" pin="GND_OUT" pad="GND_OUT"/>
<connect gate="G$1" pin="GND_SW" pad="GND_SW"/>
<connect gate="G$1" pin="OUT_A" pad="OUT_A"/>
<connect gate="G$1" pin="OUT_B" pad="OUT_B"/>
<connect gate="G$1" pin="SW" pad="SW"/>
</connects>
<technologies>
<technology name=""/>
</technologies>
</device>
</devices>
</deviceset>
</devicesets>
</library>
</libraries>
<attributes>
</attributes>
<variantdefs>
</variantdefs>
<classes>
<class number="0" name="default" width="0" drill="0">
</class>
</classes>
<parts>
<part name="U$1" library="Teensy356" deviceset="TEENSY_3.5/3.6" device=""/>
<part name="BTN_C1R1" library="cherrymx" deviceset="CHERRY-MX" device=""/>
<part name="BTN_C2R1" library="cherrymx" deviceset="CHERRY-MX" device=""/>
<part name="BTN_C3R1" library="cherrymx" deviceset="CHERRY-MX" device=""/>
<part name="BTN_C4R1" library="cherrymx" deviceset="CHERRY-MX" device=""/>
<part name="BTN_C1R2" library="cherrymx" deviceset="CHERRY-MX" device=""/>
<part name="BTN_C2R2" library="cherrymx" deviceset="CHERRY-MX" device=""/>
<part name="BTN_C3R2" library="cherrymx" deviceset="CHERRY-MX" device=""/>
<part name="BTN_C4R2" library="cherrymx" deviceset="CHERRY-MX" device=""/>
<part name="BTN_C1R3" library="cherrymx" deviceset="CHERRY-MX" device=""/>
<part name="BTN_C2R3" library="cherrymx" deviceset="CHERRY-MX" device=""/>
<part name="BTN_C3R3" library="cherrymx" deviceset="CHERRY-MX" device=""/>
<part name="BTN_C4R3" library="cherrymx" deviceset="CHERRY-MX" device=""/>
<part name="U$2" library="spook" deviceset="WAVESHARE_EPAPER_2.9IN" device=""/>
<part name="U$3" library="spook" deviceset="ENCODER" device=""/>
</parts>
<sheets>
<sheet>
<plain>
</plain>
<instances>
<instance part="U$1" gate="G$1" x="-33.02" y="91.44" smashed="yes"/>
<instance part="BTN_C1R1" gate="G$1" x="91.44" y="88.9" smashed="yes">
<attribute name="NAME" x="86.36" y="81.28" size="1.778" layer="95"/>
</instance>
<instance part="BTN_C2R1" gate="G$1" x="91.44" y="27.94" smashed="yes">
<attribute name="NAME" x="86.36" y="20.32" size="1.778" layer="95"/>
</instance>
<instance part="BTN_C3R1" gate="G$1" x="167.64" y="88.9" smashed="yes">
<attribute name="NAME" x="162.56" y="81.28" size="1.778" layer="95"/>
</instance>
<instance part="BTN_C4R1" gate="G$1" x="167.64" y="27.94" smashed="yes">
<attribute name="NAME" x="162.56" y="20.32" size="1.778" layer="95"/>
</instance>
<instance part="BTN_C1R2" gate="G$1" x="91.44" y="71.12" smashed="yes">
<attribute name="NAME" x="86.36" y="63.5" size="1.778" layer="95"/>
</instance>
<instance part="BTN_C2R2" gate="G$1" x="91.44" y="10.16" smashed="yes">
<attribute name="NAME" x="86.36" y="2.54" size="1.778" layer="95"/>
</instance>
<instance part="BTN_C3R2" gate="G$1" x="167.64" y="71.12" smashed="yes">
<attribute name="NAME" x="162.56" y="63.5" size="1.778" layer="95"/>
</instance>
<instance part="BTN_C4R2" gate="G$1" x="167.64" y="10.16" smashed="yes">
<attribute name="NAME" x="162.56" y="2.54" size="1.778" layer="95"/>
</instance>
<instance part="BTN_C1R3" gate="G$1" x="91.44" y="53.34" smashed="yes">
<attribute name="NAME" x="86.36" y="45.72" size="1.778" layer="95"/>
</instance>
<instance part="BTN_C2R3" gate="G$1" x="91.44" y="-7.62" smashed="yes">
<attribute name="NAME" x="86.36" y="-15.24" size="1.778" layer="95"/>
</instance>
<instance part="BTN_C3R3" gate="G$1" x="167.64" y="53.34" smashed="yes">
<attribute name="NAME" x="162.56" y="45.72" size="1.778" layer="95"/>
</instance>
<instance part="BTN_C4R3" gate="G$1" x="167.64" y="-7.62" smashed="yes">
<attribute name="NAME" x="162.56" y="-15.24" size="1.778" layer="95"/>
</instance>
<instance part="U$2" gate="G$1" x="-15.24" y="17.78" smashed="yes"/>
<instance part="U$3" gate="G$1" x="-30.48" y="-20.32" smashed="yes"/>
</instances>
<busses>
</busses>
<nets>
<net name="DISPLAY_CS" class="0">
<segment>
<pinref part="U$1" gate="G$1" pin="10/CS"/>
<wire x1="-53.34" y1="76.2" x2="-58.42" y2="76.2" width="0.1524" layer="91"/>
<label x="-58.42" y="76.2" size="1.778" layer="95" rot="R180" xref="yes"/>
</segment>
<segment>
<pinref part="U$2" gate="G$1" pin="CS"/>
<wire x1="-20.32" y1="7.62" x2="-48.26" y2="7.62" width="0.1524" layer="91"/>
<label x="-48.26" y="7.62" size="1.778" layer="95" rot="R180" xref="yes"/>
</segment>
</net>
<net name="DISPLAY_MOSI" class="0">
<segment>
<pinref part="U$1" gate="G$1" pin="11/MOSI"/>
<wire x1="-53.34" y1="73.66" x2="-81.28" y2="73.66" width="0.1524" layer="91"/>
<label x="-81.28" y="73.66" size="1.778" layer="95" rot="R180" xref="yes"/>
</segment>
<segment>
<pinref part="U$2" gate="G$1" pin="DIN"/>
<wire x1="-20.32" y1="2.54" x2="-48.26" y2="2.54" width="0.1524" layer="91"/>
<label x="-48.26" y="2.54" size="1.778" layer="95" rot="R180" xref="yes"/>
</segment>
</net>
<net name="DISPLAY_MISO" class="0">
<segment>
<pinref part="U$1" gate="G$1" pin="12/MISO"/>
<wire x1="-53.34" y1="71.12" x2="-58.42" y2="71.12" width="0.1524" layer="91"/>
<label x="-58.42" y="71.12" size="1.778" layer="95" rot="R180" xref="yes"/>
</segment>
</net>
<net name="DISPLAY_SCK" class="0">
<segment>
<pinref part="U$1" gate="G$1" pin="13/SCK"/>
<wire x1="-12.7" y1="71.12" x2="-7.62" y2="71.12" width="0.1524" layer="91"/>
<label x="-7.62" y="71.12" size="1.778" layer="95" xref="yes"/>
</segment>
<segment>
<pinref part="U$2" gate="G$1" pin="CLK"/>
<wire x1="-20.32" y1="5.08" x2="-25.4" y2="5.08" width="0.1524" layer="91"/>
<label x="-25.4" y="5.08" size="1.778" layer="95" rot="R180" xref="yes"/>
</segment>
</net>
<net name="GND" class="0">
<segment>
<pinref part="U$1" gate="G$1" pin="GND"/>
<wire x1="-53.34" y1="104.14" x2="-58.42" y2="104.14" width="0.1524" layer="91"/>
<label x="-58.42" y="104.14" size="1.778" layer="95" rot="R180" xref="yes"/>
</segment>
<segment>
<pinref part="BTN_C1R1" gate="G$1" pin="PIN-1"/>
<wire x1="81.28" y1="91.44" x2="76.2" y2="91.44" width="0.1524" layer="91"/>
<label x="76.2" y="91.44" size="1.778" layer="95" rot="R180" xref="yes"/>
</segment>
<segment>
<pinref part="BTN_C2R1" gate="G$1" pin="PIN-1"/>
<wire x1="81.28" y1="30.48" x2="76.2" y2="30.48" width="0.1524" layer="91"/>
<label x="76.2" y="30.48" size="1.778" layer="95" rot="R180" xref="yes"/>
</segment>
<segment>
<pinref part="BTN_C3R1" gate="G$1" pin="PIN-1"/>
<wire x1="157.48" y1="91.44" x2="152.4" y2="91.44" width="0.1524" layer="91"/>
<label x="152.4" y="91.44" size="1.778" layer="95" rot="R180" xref="yes"/>
</segment>
<segment>
<pinref part="BTN_C4R1" gate="G$1" pin="PIN-1"/>
<wire x1="157.48" y1="30.48" x2="152.4" y2="30.48" width="0.1524" layer="91"/>
<label x="152.4" y="30.48" size="1.778" layer="95" rot="R180" xref="yes"/>
</segment>
<segment>
<pinref part="BTN_C1R2" gate="G$1" pin="PIN-1"/>
<wire x1="81.28" y1="73.66" x2="76.2" y2="73.66" width="0.1524" layer="91"/>
<label x="76.2" y="73.66" size="1.778" layer="95" rot="R180" xref="yes"/>
</segment>
<segment>
<pinref part="BTN_C2R2" gate="G$1" pin="PIN-1"/>
<wire x1="81.28" y1="12.7" x2="76.2" y2="12.7" width="0.1524" layer="91"/>
<label x="76.2" y="12.7" size="1.778" layer="95" rot="R180" xref="yes"/>
</segment>
<segment>
<pinref part="BTN_C3R2" gate="G$1" pin="PIN-1"/>
<wire x1="157.48" y1="73.66" x2="152.4" y2="73.66" width="0.1524" layer="91"/>
<label x="152.4" y="73.66" size="1.778" layer="95" rot="R180" xref="yes"/>
</segment>
<segment>
<pinref part="BTN_C4R2" gate="G$1" pin="PIN-1"/>
<wire x1="157.48" y1="12.7" x2="152.4" y2="12.7" width="0.1524" layer="91"/>
<label x="152.4" y="12.7" size="1.778" layer="95" rot="R180" xref="yes"/>
</segment>
<segment>
<pinref part="BTN_C1R3" gate="G$1" pin="PIN-1"/>
<wire x1="81.28" y1="55.88" x2="76.2" y2="55.88" width="0.1524" layer="91"/>
<label x="76.2" y="55.88" size="1.778" layer="95" rot="R180" xref="yes"/>
</segment>
<segment>
<pinref part="BTN_C2R3" gate="G$1" pin="PIN-1"/>
<wire x1="81.28" y1="-5.08" x2="76.2" y2="-5.08" width="0.1524" layer="91"/>
<label x="76.2" y="-5.08" size="1.778" layer="95" rot="R180" xref="yes"/>
</segment>
<segment>
<pinref part="BTN_C3R3" gate="G$1" pin="PIN-1"/>
<wire x1="157.48" y1="55.88" x2="152.4" y2="55.88" width="0.1524" layer="91"/>
<label x="152.4" y="55.88" size="1.778" layer="95" rot="R180" xref="yes"/>
</segment>
<segment>
<pinref part="BTN_C4R3" gate="G$1" pin="PIN-1"/>
<wire x1="157.48" y1="-5.08" x2="152.4" y2="-5.08" width="0.1524" layer="91"/>
<label x="152.4" y="-5.08" size="1.778" layer="95" rot="R180" xref="yes"/>
</segment>
<segment>
<pinref part="U$2" gate="G$1" pin="GND"/>
<wire x1="-20.32" y1="0" x2="-25.4" y2="0" width="0.1524" layer="91"/>
<label x="-25.4" y="0" size="1.778" layer="95" rot="R180" xref="yes"/>
</segment>
<segment>
<pinref part="U$3" gate="G$1" pin="GND_OUT"/>
<wire x1="-43.18" y1="-20.32" x2="-50.8" y2="-20.32" width="0.1524" layer="91"/>
<label x="-50.8" y="-20.32" size="1.778" layer="95" rot="R180" xref="yes"/>
</segment>
<segment>
<pinref part="U$3" gate="G$1" pin="GND_SW"/>
<wire x1="-43.18" y1="-25.4" x2="-50.8" y2="-25.4" width="0.1524" layer="91"/>
<label x="-50.8" y="-25.4" size="1.778" layer="95" rot="R180" xref="yes"/>
</segment>
</net>
<net name="TRG_C1R1" class="0">
<segment>
<pinref part="U$1" gate="G$1" pin="24"/>
<wire x1="-53.34" y1="66.04" x2="-58.42" y2="66.04" width="0.1524" layer="91"/>
<label x="-58.42" y="66.04" size="1.778" layer="95" rot="R180" xref="yes"/>
</segment>
<segment>
<pinref part="BTN_C1R1" gate="G$1" pin="PIN-2"/>
<wire x1="81.28" y1="86.36" x2="76.2" y2="86.36" width="0.1524" layer="91"/>
<label x="76.2" y="86.36" size="1.778" layer="95" rot="R180" xref="yes"/>
</segment>
</net>
<net name="TRG_C2R1" class="0">
<segment>
<pinref part="U$1" gate="G$1" pin="25"/>
<wire x1="-53.34" y1="63.5" x2="-76.2" y2="63.5" width="0.1524" layer="91"/>
<label x="-76.2" y="63.5" size="1.778" layer="95" rot="R180" xref="yes"/>
</segment>
<segment>
<pinref part="BTN_C2R1" gate="G$1" pin="PIN-2"/>
<wire x1="81.28" y1="25.4" x2="76.2" y2="25.4" width="0.1524" layer="91"/>
<label x="76.2" y="25.4" size="1.778" layer="95" rot="R180" xref="yes"/>
</segment>
</net>
<net name="TRG_C3R1" class="0">
<segment>
<pinref part="U$1" gate="G$1" pin="26"/>
<wire x1="-53.34" y1="60.96" x2="-58.42" y2="60.96" width="0.1524" layer="91"/>
<label x="-58.42" y="60.96" size="1.778" layer="95" rot="R180" xref="yes"/>
</segment>
<segment>
<pinref part="BTN_C3R1" gate="G$1" pin="PIN-2"/>
<wire x1="157.48" y1="86.36" x2="152.4" y2="86.36" width="0.1524" layer="91"/>
<label x="152.4" y="86.36" size="1.778" layer="95" rot="R180" xref="yes"/>
</segment>
</net>
<net name="TRG_C4R1" class="0">
<segment>
<pinref part="U$1" gate="G$1" pin="27"/>
<wire x1="-53.34" y1="58.42" x2="-76.2" y2="58.42" width="0.1524" layer="91"/>
<label x="-76.2" y="58.42" size="1.778" layer="95" rot="R180" xref="yes"/>
</segment>
<segment>
<pinref part="BTN_C4R1" gate="G$1" pin="PIN-2"/>
<wire x1="157.48" y1="25.4" x2="152.4" y2="25.4" width="0.1524" layer="91"/>
<label x="152.4" y="25.4" size="1.778" layer="95" rot="R180" xref="yes"/>
</segment>
</net>
<net name="TRG_C1R2" class="0">
<segment>
<pinref part="U$1" gate="G$1" pin="28"/>
<wire x1="-53.34" y1="55.88" x2="-58.42" y2="55.88" width="0.1524" layer="91"/>
<label x="-58.42" y="55.88" size="1.778" layer="95" rot="R180" xref="yes"/>
</segment>
<segment>
<pinref part="BTN_C1R2" gate="G$1" pin="PIN-2"/>
<wire x1="81.28" y1="68.58" x2="76.2" y2="68.58" width="0.1524" layer="91"/>
<label x="76.2" y="68.58" size="1.778" layer="95" rot="R180" xref="yes"/>
</segment>
</net>
<net name="TRG_C2R2" class="0">
<segment>
<pinref part="BTN_C2R2" gate="G$1" pin="PIN-2"/>
<wire x1="81.28" y1="7.62" x2="76.2" y2="7.62" width="0.1524" layer="91"/>
<label x="76.2" y="7.62" size="1.778" layer="95" rot="R180" xref="yes"/>
</segment>
<segment>
<pinref part="U$1" gate="G$1" pin="29"/>
<wire x1="-53.34" y1="53.34" x2="-76.2" y2="53.34" width="0.1524" layer="91"/>
<label x="-76.2" y="53.34" size="1.778" layer="95" rot="R180" xref="yes"/>
</segment>
</net>
<net name="TRG_C3R2" class="0">
<segment>
<pinref part="BTN_C3R2" gate="G$1" pin="PIN-2"/>
<wire x1="157.48" y1="68.58" x2="152.4" y2="68.58" width="0.1524" layer="91"/>
<label x="152.4" y="68.58" size="1.778" layer="95" rot="R180" xref="yes"/>
</segment>
<segment>
<pinref part="U$1" gate="G$1" pin="18/A4/SDA"/>
<wire x1="-12.7" y1="83.82" x2="-7.62" y2="83.82" width="0.1524" layer="91"/>
<label x="-7.62" y="83.82" size="1.778" layer="95" xref="yes"/>
</segment>
<segment>
<pinref part="U$1" gate="G$1" pin="30"/>
<wire x1="-53.34" y1="50.8" x2="-58.42" y2="50.8" width="0.1524" layer="91"/>
<label x="-58.42" y="50.8" size="1.778" layer="95" rot="R180" xref="yes"/>
</segment>
</net>
<net name="TRG_C4R2" class="0">
<segment>
<pinref part="U$1" gate="G$1" pin="31/A12"/>
<wire x1="-53.34" y1="48.26" x2="-76.2" y2="48.26" width="0.1524" layer="91"/>
<label x="-76.2" y="48.26" size="1.778" layer="95" rot="R180" xref="yes"/>
</segment>
<segment>
<pinref part="BTN_C4R2" gate="G$1" pin="PIN-2"/>
<wire x1="157.48" y1="7.62" x2="152.4" y2="7.62" width="0.1524" layer="91"/>
<label x="152.4" y="7.62" size="1.778" layer="95" rot="R180" xref="yes"/>
</segment>
</net>
<net name="TRG_C1R3" class="0">
<segment>
<pinref part="U$1" gate="G$1" pin="32/A13"/>
<wire x1="-53.34" y1="45.72" x2="-58.42" y2="45.72" width="0.1524" layer="91"/>
<label x="-58.42" y="45.72" size="1.778" layer="95" rot="R180" xref="yes"/>
</segment>
<segment>
<pinref part="BTN_C1R3" gate="G$1" pin="PIN-2"/>
<wire x1="81.28" y1="50.8" x2="76.2" y2="50.8" width="0.1524" layer="91"/>
<label x="76.2" y="50.8" size="1.778" layer="95" rot="R180" xref="yes"/>
</segment>
</net>
<net name="TRG_C2R3" class="0">
<segment>
<pinref part="U$1" gate="G$1" pin="33/A14"/>
<wire x1="-12.7" y1="45.72" x2="10.16" y2="45.72" width="0.1524" layer="91"/>
<label x="10.16" y="45.72" size="1.778" layer="95" xref="yes"/>
</segment>
<segment>
<pinref part="BTN_C2R3" gate="G$1" pin="PIN-2"/>
<wire x1="81.28" y1="-10.16" x2="76.2" y2="-10.16" width="0.1524" layer="91"/>
<label x="76.2" y="-10.16" size="1.778" layer="95" rot="R180" xref="yes"/>
</segment>
</net>
<net name="TRG_C3R3" class="0">
<segment>
<pinref part="U$1" gate="G$1" pin="34/A15"/>
<wire x1="-12.7" y1="48.26" x2="-7.62" y2="48.26" width="0.1524" layer="91"/>
<label x="-7.62" y="48.26" size="1.778" layer="95" xref="yes"/>
</segment>
<segment>
<pinref part="BTN_C3R3" gate="G$1" pin="PIN-2"/>
<wire x1="157.48" y1="50.8" x2="152.4" y2="50.8" width="0.1524" layer="91"/>
<label x="152.4" y="50.8" size="1.778" layer="95" rot="R180" xref="yes"/>
</segment>
</net>
<net name="TRG_C4R3" class="0">
<segment>
<pinref part="U$1" gate="G$1" pin="35/A16"/>
<wire x1="-12.7" y1="50.8" x2="10.16" y2="50.8" width="0.1524" layer="91"/>
<label x="10.16" y="50.8" size="1.778" layer="95" xref="yes"/>
</segment>
<segment>
<pinref part="BTN_C4R3" gate="G$1" pin="PIN-2"/>
<wire x1="157.48" y1="-10.16" x2="152.4" y2="-10.16" width="0.1524" layer="91"/>
<label x="152.4" y="-10.16" size="1.778" layer="95" rot="R180" xref="yes"/>
</segment>
</net>
<net name="VCC" class="0">
<segment>
<pinref part="U$1" gate="G$1" pin="3V3_LO"/>
<wire x1="-12.7" y1="99.06" x2="-7.62" y2="99.06" width="0.1524" layer="91"/>
<label x="-7.62" y="99.06" size="1.778" layer="95" xref="yes"/>
</segment>
<segment>
<pinref part="U$2" gate="G$1" pin="VCC"/>
<wire x1="-20.32" y1="-2.54" x2="-48.26" y2="-2.54" width="0.1524" layer="91"/>
<label x="-48.26" y="-2.54" size="1.778" layer="95" rot="R180" xref="yes"/>
</segment>
</net>
<net name="DISPLAY_DC" class="0">
<segment>
<pinref part="U$1" gate="G$1" pin="8"/>
<wire x1="-53.34" y1="81.28" x2="-58.42" y2="81.28" width="0.1524" layer="91"/>
<label x="-58.42" y="81.28" size="1.778" layer="95" rot="R180" xref="yes"/>
</segment>
<segment>
<pinref part="U$2" gate="G$1" pin="DC"/>
<wire x1="-20.32" y1="10.16" x2="-25.4" y2="10.16" width="0.1524" layer="91"/>
<label x="-25.4" y="10.16" size="1.778" layer="95" rot="R180" xref="yes"/>
</segment>
</net>
<net name="DISPLAY_RST" class="0">
<segment>
<pinref part="U$1" gate="G$1" pin="7"/>
<wire x1="-53.34" y1="83.82" x2="-81.28" y2="83.82" width="0.1524" layer="91"/>
<label x="-81.28" y="83.82" size="1.778" layer="95" rot="R180" xref="yes"/>
</segment>
<segment>
<pinref part="U$2" gate="G$1" pin="RST"/>
<wire x1="-20.32" y1="12.7" x2="-48.26" y2="12.7" width="0.1524" layer="91"/>
<label x="-48.26" y="12.7" size="1.778" layer="95" rot="R180" xref="yes"/>
</segment>
</net>
<net name="DISPLAY_BUSY" class="0">
<segment>
<pinref part="U$1" gate="G$1" pin="6"/>
<wire x1="-53.34" y1="86.36" x2="-58.42" y2="86.36" width="0.1524" layer="91"/>
<label x="-58.42" y="86.36" size="1.778" layer="95" rot="R180" xref="yes"/>
</segment>
<segment>
<pinref part="U$2" gate="G$1" pin="BUSY"/>
<wire x1="-20.32" y1="15.24" x2="-25.4" y2="15.24" width="0.1524" layer="91"/>
<label x="-25.4" y="15.24" size="1.778" layer="95" rot="R180" xref="yes"/>
</segment>
</net>
<net name="ENCODER_OUT_A" class="0">
<segment>
<pinref part="U$1" gate="G$1" pin="3/CANTX"/>
<wire x1="-53.34" y1="93.98" x2="-86.36" y2="93.98" width="0.1524" layer="91"/>
<label x="-86.36" y="93.98" size="1.778" layer="95" rot="R180" xref="yes"/>
</segment>
<segment>
<pinref part="U$3" gate="G$1" pin="OUT_A"/>
<wire x1="-43.18" y1="-15.24" x2="-50.8" y2="-15.24" width="0.1524" layer="91"/>
<label x="-50.8" y="-15.24" size="1.778" layer="95" rot="R180" xref="yes"/>
</segment>
</net>
<net name="ENCODER_OUT_B" class="0">
<segment>
<pinref part="U$1" gate="G$1" pin="4/CANRX"/>
<wire x1="-53.34" y1="91.44" x2="-58.42" y2="91.44" width="0.1524" layer="91"/>
<label x="-58.42" y="91.44" size="1.778" layer="95" rot="R180" xref="yes"/>
</segment>
<segment>
<pinref part="U$3" gate="G$1" pin="OUT_B"/>
<wire x1="-43.18" y1="-17.78" x2="-50.8" y2="-17.78" width="0.1524" layer="91"/>
<label x="-50.8" y="-17.78" size="1.778" layer="95" rot="R180" xref="yes"/>
</segment>
</net>
<net name="ENCODER_SW" class="0">
<segment>
<pinref part="U$1" gate="G$1" pin="2"/>
<wire x1="-53.34" y1="96.52" x2="-58.42" y2="96.52" width="0.1524" layer="91"/>
<label x="-58.42" y="96.52" size="1.778" layer="95" rot="R180" xref="yes"/>
</segment>
<segment>
<pinref part="U$3" gate="G$1" pin="SW"/>
<wire x1="-43.18" y1="-22.86" x2="-50.8" y2="-22.86" width="0.1524" layer="91"/>
<label x="-50.8" y="-22.86" size="1.778" layer="95" rot="R180" xref="yes"/>
</segment>
</net>
</nets>
</sheet>
</sheets>
</schematic>
</drawing>
<compatibility>
<note version="6.3" minversion="6.2.2" severity="warning">
Since Version 6.2.2 text objects can contain more than one line,
which will not be processed correctly with this version.
</note>
</compatibility>
</eagle>
