<?xml version="1.0" encoding="utf-8"?>
<!DOCTYPE eagle SYSTEM "eagle.dtd">
<eagle version="9.6.2">
<drawing>
<settings>
<setting alwaysvectorfont="no"/>
<setting verticaltext="up"/>
</settings>
<grid distance="1" unitdist="mm" unit="mm" style="lines" multiple="1" display="yes" altdistance="0.5" altunitdist="mm" altunit="mm"/>
<layers>
<layer number="1" name="Top" color="4" fill="1" visible="yes" active="yes"/>
<layer number="2" name="Route2" color="16" fill="1" visible="no" active="no"/>
<layer number="3" name="Route3" color="17" fill="1" visible="no" active="no"/>
<layer number="4" name="Route4" color="18" fill="1" visible="no" active="no"/>
<layer number="5" name="Route5" color="19" fill="1" visible="no" active="no"/>
<layer number="6" name="Route6" color="25" fill="1" visible="no" active="no"/>
<layer number="7" name="Route7" color="26" fill="1" visible="no" active="no"/>
<layer number="8" name="Route8" color="27" fill="1" visible="no" active="no"/>
<layer number="9" name="Route9" color="28" fill="1" visible="no" active="no"/>
<layer number="10" name="Route10" color="29" fill="1" visible="no" active="no"/>
<layer number="11" name="Route11" color="30" fill="1" visible="no" active="no"/>
<layer number="12" name="Route12" color="20" fill="1" visible="no" active="no"/>
<layer number="13" name="Route13" color="21" fill="1" visible="no" active="no"/>
<layer number="14" name="Route14" color="22" fill="1" visible="no" active="no"/>
<layer number="15" name="Route15" color="23" fill="1" visible="no" active="no"/>
<layer number="16" name="Bottom" color="1" fill="1" visible="yes" active="yes"/>
<layer number="17" name="Pads" color="2" fill="1" visible="yes" active="yes"/>
<layer number="18" name="Vias" color="2" fill="1" visible="yes" active="yes"/>
<layer number="19" name="Unrouted" color="6" fill="1" visible="yes" active="yes"/>
<layer number="20" name="Dimension" color="24" fill="1" visible="yes" active="yes"/>
<layer number="21" name="tPlace" color="7" fill="1" visible="yes" active="yes"/>
<layer number="22" name="bPlace" color="7" fill="1" visible="yes" active="yes"/>
<layer number="23" name="tOrigins" color="15" fill="1" visible="yes" active="yes"/>
<layer number="24" name="bOrigins" color="15" fill="1" visible="yes" active="yes"/>
<layer number="25" name="tNames" color="7" fill="1" visible="yes" active="yes"/>
<layer number="26" name="bNames" color="7" fill="1" visible="yes" active="yes"/>
<layer number="27" name="tValues" color="7" fill="1" visible="yes" active="yes"/>
<layer number="28" name="bValues" color="7" fill="1" visible="yes" active="yes"/>
<layer number="29" name="tStop" color="7" fill="3" visible="no" active="yes"/>
<layer number="30" name="bStop" color="7" fill="6" visible="no" active="yes"/>
<layer number="31" name="tCream" color="7" fill="4" visible="no" active="yes"/>
<layer number="32" name="bCream" color="7" fill="5" visible="no" active="yes"/>
<layer number="33" name="tFinish" color="6" fill="3" visible="no" active="yes"/>
<layer number="34" name="bFinish" color="6" fill="6" visible="no" active="yes"/>
<layer number="35" name="tGlue" color="7" fill="4" visible="no" active="yes"/>
<layer number="36" name="bGlue" color="7" fill="5" visible="no" active="yes"/>
<layer number="37" name="tTest" color="7" fill="1" visible="no" active="yes"/>
<layer number="38" name="bTest" color="7" fill="1" visible="no" active="yes"/>
<layer number="39" name="tKeepout" color="4" fill="11" visible="yes" active="yes"/>
<layer number="40" name="bKeepout" color="1" fill="11" visible="yes" active="yes"/>
<layer number="41" name="tRestrict" color="4" fill="10" visible="yes" active="yes"/>
<layer number="42" name="bRestrict" color="1" fill="10" visible="yes" active="yes"/>
<layer number="43" name="vRestrict" color="2" fill="10" visible="yes" active="yes"/>
<layer number="44" name="Drills" color="7" fill="1" visible="no" active="yes"/>
<layer number="45" name="Holes" color="7" fill="1" visible="yes" active="yes"/>
<layer number="46" name="Milling" color="3" fill="1" visible="no" active="yes"/>
<layer number="47" name="Measures" color="7" fill="1" visible="no" active="yes"/>
<layer number="48" name="Document" color="7" fill="1" visible="yes" active="yes"/>
<layer number="49" name="Reference" color="7" fill="1" visible="yes" active="yes"/>
<layer number="50" name="dxf" color="7" fill="1" visible="no" active="no"/>
<layer number="51" name="tDocu" color="7" fill="1" visible="yes" active="yes"/>
<layer number="52" name="bDocu" color="7" fill="1" visible="yes" active="yes"/>
<layer number="53" name="tGND_GNDA" color="7" fill="1" visible="no" active="no"/>
<layer number="54" name="bGND_GNDA" color="7" fill="1" visible="no" active="no"/>
<layer number="56" name="wert" color="7" fill="1" visible="no" active="no"/>
<layer number="57" name="tCAD" color="7" fill="1" visible="no" active="no"/>
<layer number="59" name="tCarbon" color="7" fill="1" visible="no" active="no"/>
<layer number="60" name="bCarbon" color="7" fill="1" visible="no" active="no"/>
<layer number="88" name="SimResults" color="9" fill="1" visible="no" active="no"/>
<layer number="89" name="SimProbes" color="9" fill="1" visible="no" active="no"/>
<layer number="90" name="Modules" color="5" fill="1" visible="no" active="no"/>
<layer number="91" name="Nets" color="2" fill="1" visible="no" active="no"/>
<layer number="92" name="Busses" color="1" fill="1" visible="no" active="no"/>
<layer number="93" name="Pins" color="2" fill="1" visible="no" active="no"/>
<layer number="94" name="Symbols" color="4" fill="1" visible="no" active="no"/>
<layer number="95" name="Names" color="7" fill="1" visible="no" active="no"/>
<layer number="96" name="Values" color="7" fill="1" visible="no" active="no"/>
<layer number="97" name="Info" color="7" fill="1" visible="no" active="no"/>
<layer number="98" name="Guide" color="6" fill="1" visible="no" active="no"/>
<layer number="99" name="SpiceOrder" color="5" fill="1" visible="no" active="no"/>
<layer number="100" name="Muster" color="7" fill="1" visible="yes" active="yes"/>
<layer number="101" name="Patch_Top" color="7" fill="1" visible="yes" active="yes"/>
<layer number="102" name="Vscore" color="7" fill="1" visible="yes" active="yes"/>
<layer number="103" name="tMap" color="7" fill="1" visible="yes" active="yes"/>
<layer number="104" name="Name" color="7" fill="1" visible="yes" active="yes"/>
<layer number="105" name="tPlate" color="7" fill="1" visible="yes" active="yes"/>
<layer number="106" name="bPlate" color="7" fill="1" visible="yes" active="yes"/>
<layer number="107" name="Crop" color="7" fill="1" visible="yes" active="yes"/>
<layer number="108" name="centerline" color="7" fill="1" visible="yes" active="yes"/>
<layer number="109" name="fp9" color="7" fill="1" visible="no" active="no"/>
<layer number="110" name="110" color="7" fill="1" visible="no" active="no"/>
<layer number="111" name="111" color="7" fill="1" visible="no" active="no"/>
<layer number="112" name="tSilk" color="7" fill="1" visible="no" active="no"/>
<layer number="113" name="ReferenceLS" color="7" fill="1" visible="no" active="no"/>
<layer number="114" name="Panel" color="11" fill="1" visible="yes" active="yes"/>
<layer number="116" name="Patch_BOT" color="7" fill="1" visible="yes" active="yes"/>
<layer number="118" name="Rect_Pads" color="7" fill="1" visible="no" active="no"/>
<layer number="121" name="_tsilk" color="7" fill="1" visible="yes" active="yes"/>
<layer number="122" name="_bsilk" color="7" fill="1" visible="yes" active="yes"/>
<layer number="123" name="tTestmark" color="7" fill="1" visible="no" active="no"/>
<layer number="124" name="bTestmark" color="7" fill="1" visible="no" active="no"/>
<layer number="125" name="_tNames" color="7" fill="1" visible="yes" active="yes"/>
<layer number="126" name="_bNames" color="7" fill="1" visible="no" active="no"/>
<layer number="127" name="_tValues" color="7" fill="1" visible="no" active="no"/>
<layer number="128" name="_bValues" color="7" fill="1" visible="no" active="no"/>
<layer number="129" name="Mask" color="7" fill="1" visible="yes" active="yes"/>
<layer number="131" name="prix" color="7" fill="1" visible="yes" active="yes"/>
<layer number="132" name="test" color="7" fill="1" visible="yes" active="yes"/>
<layer number="144" name="Drill_legend" color="7" fill="1" visible="yes" active="yes"/>
<layer number="150" name="Notes" color="7" fill="1" visible="yes" active="yes"/>
<layer number="151" name="HeatSink" color="7" fill="1" visible="yes" active="yes"/>
<layer number="152" name="_bDocu" color="7" fill="1" visible="no" active="no"/>
<layer number="153" name="FabDoc1" color="6" fill="1" visible="no" active="no"/>
<layer number="154" name="FabDoc2" color="2" fill="1" visible="no" active="no"/>
<layer number="155" name="FabDoc3" color="7" fill="15" visible="no" active="no"/>
<layer number="199" name="Contour" color="7" fill="1" visible="no" active="no"/>
<layer number="200" name="200bmp" color="1" fill="10" visible="yes" active="yes"/>
<layer number="201" name="201bmp" color="2" fill="10" visible="yes" active="yes"/>
<layer number="202" name="202bmp" color="7" fill="1" visible="yes" active="yes"/>
<layer number="203" name="203bmp" color="7" fill="1" visible="yes" active="yes"/>
<layer number="204" name="204bmp" color="7" fill="1" visible="yes" active="yes"/>
<layer number="205" name="205bmp" color="7" fill="1" visible="yes" active="yes"/>
<layer number="206" name="206bmp" color="7" fill="1" visible="yes" active="yes"/>
<layer number="207" name="207bmp" color="7" fill="1" visible="yes" active="yes"/>
<layer number="208" name="208bmp" color="7" fill="1" visible="yes" active="yes"/>
<layer number="209" name="209bmp" color="7" fill="1" visible="yes" active="yes"/>
<layer number="210" name="210bmp" color="7" fill="1" visible="yes" active="yes"/>
<layer number="211" name="211bmp" color="7" fill="1" visible="yes" active="yes"/>
<layer number="212" name="212bmp" color="7" fill="1" visible="yes" active="yes"/>
<layer number="213" name="213bmp" color="7" fill="1" visible="yes" active="yes"/>
<layer number="214" name="214bmp" color="7" fill="1" visible="yes" active="yes"/>
<layer number="215" name="215bmp" color="7" fill="1" visible="yes" active="yes"/>
<layer number="216" name="216bmp" color="7" fill="1" visible="yes" active="yes"/>
<layer number="217" name="217bmp" color="7" fill="1" visible="yes" active="yes"/>
<layer number="218" name="218bmp" color="7" fill="1" visible="yes" active="yes"/>
<layer number="219" name="219bmp" color="7" fill="1" visible="yes" active="yes"/>
<layer number="220" name="220bmp" color="7" fill="1" visible="yes" active="yes"/>
<layer number="221" name="221bmp" color="7" fill="1" visible="yes" active="yes"/>
<layer number="222" name="222bmp" color="7" fill="1" visible="yes" active="yes"/>
<layer number="223" name="223bmp" color="7" fill="1" visible="yes" active="yes"/>
<layer number="224" name="224bmp" color="7" fill="1" visible="yes" active="yes"/>
<layer number="225" name="225bmp" color="7" fill="1" visible="yes" active="yes"/>
<layer number="226" name="226bmp" color="7" fill="1" visible="yes" active="yes"/>
<layer number="227" name="227bmp" color="7" fill="1" visible="yes" active="yes"/>
<layer number="228" name="228bmp" color="7" fill="1" visible="yes" active="yes"/>
<layer number="229" name="229bmp" color="7" fill="1" visible="yes" active="yes"/>
<layer number="230" name="230bmp" color="7" fill="1" visible="yes" active="yes"/>
<layer number="231" name="Eagle3D_PG1" color="7" fill="1" visible="no" active="no"/>
<layer number="232" name="Eagle3D_PG2" color="7" fill="1" visible="no" active="no"/>
<layer number="233" name="Eagle3D_PG3" color="7" fill="1" visible="no" active="no"/>
<layer number="248" name="Housing" color="7" fill="1" visible="no" active="no"/>
<layer number="249" name="Edge" color="7" fill="1" visible="no" active="no"/>
<layer number="250" name="Descript" color="7" fill="1" visible="yes" active="yes"/>
<layer number="251" name="SMDround" color="7" fill="1" visible="yes" active="yes"/>
<layer number="254" name="cooling" color="7" fill="1" visible="yes" active="yes"/>
<layer number="255" name="routoute" color="7" fill="1" visible="yes" active="yes"/>
</layers>
<board>
<fusionsync huburn="a.cGVyc29uYWw6dWUyZDM0ZTk5" projecturn="a.cGVyc29uYWw6dWUyZDM0ZTk5IzIwMjIwMjI3NTAxOTk0Mjgx" f3durn="urn:adsk.wipprod:dm.lineage:eb4HKLKTS2ax5GnBvLnGUA" pcbguid="" lastpulledtime="" lastsyncedchangeguid="" latestrevisionid="f70c97c0-f7d8-43c0-9888-6886ca2de8ae" lastsyncedrevisionid="f70c97c0-f7d8-43c0-9888-6886ca2de8ae" lastboardhashguid="46f52f5c-60c5-c9d2-7b0a-385305c9200f" lastpushedtime="2022-03-01T21:42:06Z" linktopcb3d="true"/>
<plain>
<wire x1="0" y1="0" x2="152.5" y2="0" width="0" layer="20"/>
<wire x1="152.5" y1="0" x2="152.5" y2="64" width="0" layer="20"/>
<wire x1="152.5" y1="64" x2="0" y2="64" width="0" layer="20"/>
<wire x1="0" y1="64" x2="0" y2="0" width="0" layer="20"/>
<hole x="3" y="61" drill="3"/>
<hole x="3" y="3" drill="3"/>
<hole x="149.5" y="61" drill="3"/>
<hole x="149.5" y="3" drill="3"/>
<text x="45.5" y="47" size="1.778" layer="25">24</text>
<text x="65.5" y="47" size="1.778" layer="25">25</text>
<text x="84.5" y="47" size="1.778" layer="25">26</text>
<text x="104.5" y="47" size="1.778" layer="25">27</text>
<text x="45.5" y="27" size="1.778" layer="25">28</text>
<text x="65.5" y="27" size="1.778" layer="25">29</text>
<text x="84.5" y="27" size="1.778" layer="25">30</text>
<text x="104.5" y="27" size="1.778" layer="25">31</text>
<text x="45.5" y="7.5" size="1.778" layer="25">32</text>
<text x="65.5" y="7.5" size="1.778" layer="25">33</text>
<text x="84.5" y="7.5" size="1.778" layer="25">34</text>
<text x="104.5" y="7.5" size="1.778" layer="25">35</text>
<text x="127.8" y="19" size="1.4224" layer="25">6</text>
<text x="127.8" y="16.5" size="1.4224" layer="25">7</text>
<text x="127.7" y="14" size="1.4224" layer="25">8</text>
<text x="127.5" y="11.5" size="1.4224" layer="25">10</text>
<text x="127.5" y="9" size="1.4224" layer="25">13</text>
<text x="127.5" y="6.5" size="1.4224" layer="25">11</text>
<text x="137" y="51.5" size="1.778" layer="25" font="vector" align="center">Macro Keyboard
by Spook
01.03.2022   v1.1</text>
<wire x1="114.5" y1="64" x2="114.5" y2="0" width="0.1524" layer="25" style="shortdash"/>
<wire x1="38" y1="64" x2="38" y2="0" width="0.1524" layer="25" style="shortdash"/>
<wire x1="144.5" y1="61" x2="144.5" y2="64" width="0.1524" layer="25"/>
<wire x1="149.5" y1="56" x2="152.5" y2="56" width="0.1524" layer="25"/>
<wire x1="144.5" y1="61" x2="149.5" y2="56" width="0.1524" layer="25" curve="90"/>
<wire x1="149.5" y1="8" x2="152.5" y2="8" width="0.1524" layer="25"/>
<wire x1="144.5" y1="3" x2="144.5" y2="0" width="0.1524" layer="25"/>
<wire x1="149.5" y1="8" x2="144.5" y2="3" width="0.1524" layer="25" curve="90"/>
<wire x1="3" y1="8" x2="0" y2="8" width="0.1524" layer="25"/>
<wire x1="8" y1="3" x2="8" y2="0" width="0.1524" layer="25"/>
<wire x1="3" y1="8" x2="8" y2="3" width="0.1524" layer="25" curve="-90"/>
<wire x1="3" y1="56" x2="0" y2="56" width="0.1524" layer="25"/>
<wire x1="8" y1="61" x2="8" y2="64" width="0.1524" layer="25"/>
<wire x1="8" y1="61" x2="3" y2="56" width="0.1524" layer="25" curve="-90"/>
<hole x="124.5" y="61" drill="3"/>
<wire x1="129.5" y1="64" x2="129.5" y2="61" width="0.1524" layer="25"/>
<wire x1="119.5" y1="61" x2="119.5" y2="64" width="0.1524" layer="25"/>
<wire x1="129.5" y1="61" x2="124.5" y2="56" width="0.1524" layer="25" curve="-90"/>
<wire x1="124.5" y1="56" x2="119.5" y2="61" width="0.1524" layer="25" curve="-90"/>
<wire x1="124.5" y1="56" x2="129.5" y2="56" width="0.1524" layer="25" style="shortdash"/>
<wire x1="129.5" y1="56" x2="144.5" y2="56" width="0.1524" layer="25" style="shortdash"/>
<wire x1="144.5" y1="56" x2="149.5" y2="56" width="0.1524" layer="25" style="shortdash"/>
<wire x1="129.5" y1="61" x2="129.5" y2="56" width="0.1524" layer="25" style="shortdash"/>
<wire x1="144.5" y1="61" x2="144.5" y2="56" width="0.1524" layer="25" style="shortdash"/>
<wire x1="30" y1="64" x2="30" y2="0" width="0.1524" layer="25"/>
<wire x1="8" y1="61" x2="8" y2="3" width="0.1524" layer="25"/>
<wire x1="36" y1="64" x2="36" y2="0" width="0.1524" layer="25"/>
<wire x1="116.5" y1="64" x2="116.5" y2="0" width="0.1524" layer="25"/>
<hole x="143" y="43" drill="2"/>
<hole x="150" y="43" drill="2"/>
<hole x="143" y="21" drill="2"/>
<hole x="150" y="21" drill="2"/>
</plain>
<libraries>
<library name="cherrymx">
<description>Cherry MX Keyswitch PCB footprints</description>
<packages>
<package name="CHERRY-MX">
<description>Cherry MX Keyswitch footprint</description>
<wire x1="-7.62" y1="7.62" x2="7.62" y2="7.62" width="0.127" layer="21"/>
<wire x1="7.62" y1="7.62" x2="7.62" y2="-7.62" width="0.127" layer="21"/>
<wire x1="7.62" y1="-7.62" x2="-7.62" y2="-7.62" width="0.127" layer="21"/>
<wire x1="-7.62" y1="-7.62" x2="-7.62" y2="7.62" width="0.127" layer="21"/>
<pad name="SW1" x="-3.81" y="2.54" drill="1.1" diameter="2"/>
<pad name="SW2" x="2.54" y="5.08" drill="1.1" diameter="2"/>
<pad name="P$3" x="-5.08" y="0" drill="1.7144" diameter="1.9304"/>
<pad name="P$4" x="5.08" y="0" drill="1.7144" diameter="1.9304"/>
<hole x="0" y="0" drill="4.0004"/>
</package>
</packages>
</library>
<library name="Teensy356">
<packages>
<package name="TEENSY_3.5/3.6">
<pad name="1/TX" x="-22.86" y="-7.62" drill="0.9652"/>
<pad name="2" x="-20.32" y="-7.62" drill="0.9652"/>
<pad name="3/CANTX" x="-17.78" y="-7.62" drill="0.9652"/>
<pad name="4/CANRX" x="-15.24" y="-7.62" drill="0.9652"/>
<pad name="5" x="-12.7" y="-7.62" drill="0.9652"/>
<pad name="6" x="-10.16" y="-7.62" drill="0.9652"/>
<pad name="7" x="-7.62" y="-7.62" drill="0.9652"/>
<pad name="8" x="-5.08" y="-7.62" drill="0.9652"/>
<pad name="9/CS" x="-2.54" y="-7.62" drill="0.9652"/>
<pad name="10/CS" x="0" y="-7.62" drill="0.9652"/>
<pad name="11/MOSI" x="2.54" y="-7.62" drill="0.9652"/>
<pad name="12/MISO" x="5.08" y="-7.62" drill="0.9652"/>
<pad name="13/SCK" x="5.08" y="7.62" drill="0.9652"/>
<pad name="14/A0" x="2.54" y="7.62" drill="0.9652"/>
<pad name="15/A1" x="0" y="7.62" drill="0.9652"/>
<pad name="16/A2" x="-2.54" y="7.62" drill="0.9652"/>
<pad name="17/A3" x="-5.08" y="7.62" drill="0.9652"/>
<pad name="18/A4/SDA" x="-7.62" y="7.62" drill="0.9652"/>
<pad name="19/A5/SCL" x="-10.16" y="7.62" drill="0.9652"/>
<pad name="20/A6" x="-12.7" y="7.62" drill="0.9652"/>
<pad name="21/A7" x="-15.24" y="7.62" drill="0.9652"/>
<pad name="22/A8" x="-17.78" y="7.62" drill="0.9652"/>
<pad name="23/A9" x="-20.32" y="7.62" drill="0.9652"/>
<pad name="0/RX" x="-25.4" y="-7.62" drill="0.9652"/>
<pad name="3V3_LO" x="-22.86" y="7.62" drill="0.9652"/>
<pad name="AGND" x="-25.4" y="7.62" drill="0.9652"/>
<pad name="GND" x="-27.94" y="-7.62" drill="0.9652"/>
<pad name="VIN" x="-27.94" y="7.62" drill="0.9652"/>
<pad name="3V3" x="7.62" y="-7.62" drill="0.9652"/>
<pad name="GND2" x="7.62" y="7.62" drill="0.9652"/>
<pad name="24" x="10.16" y="-7.62" drill="0.9652"/>
<pad name="25" x="12.7" y="-7.62" drill="0.9652"/>
<pad name="26" x="15.24" y="-7.62" drill="0.9652"/>
<pad name="27" x="17.78" y="-7.62" drill="0.9652"/>
<pad name="28" x="20.32" y="-7.62" drill="0.9652"/>
<pad name="29" x="22.86" y="-7.62" drill="0.9652"/>
<pad name="30" x="25.4" y="-7.62" drill="0.9652"/>
<pad name="31/A12" x="27.94" y="-7.62" drill="0.9652"/>
<pad name="32/A13" x="30.48" y="-7.62" drill="0.9652"/>
<pad name="33/A14" x="30.48" y="7.62" drill="0.9652"/>
<pad name="34/A15" x="27.94" y="7.62" drill="0.9652"/>
<pad name="35/A16" x="25.4" y="7.62" drill="0.9652"/>
<pad name="36/A17" x="22.86" y="7.62" drill="0.9652"/>
<pad name="37/A18" x="20.32" y="7.62" drill="0.9652"/>
<pad name="38/A19" x="17.78" y="7.62" drill="0.9652"/>
<pad name="39/A20" x="15.24" y="7.62" drill="0.9652"/>
<pad name="21/DAC0" x="12.7" y="7.62" drill="0.9652"/>
<pad name="A22/DAC1" x="10.16" y="7.62" drill="0.9652"/>
<pad name="VBAT" x="17.78" y="-5.08" drill="0.9652"/>
<pad name="GND3" x="17.78" y="0" drill="0.9652"/>
<pad name="PROG" x="17.78" y="2.54" drill="0.9652"/>
<pad name="3V3_2" x="17.78" y="-2.54" drill="0.9652"/>
<pad name="RESET" x="17.78" y="5.08" drill="0.9652"/>
<pad name="VUSB" x="-25.4" y="5.08" drill="0.9652"/>
<pad name="AREF" x="-20.32" y="5.08" drill="0.9652"/>
<pad name="A10" x="-17.78" y="5.08" drill="0.9652"/>
<pad name="A11" x="-15.24" y="5.08" drill="0.9652"/>
<pad name="U5V" x="-21.59" y="-4.445" drill="0.9652"/>
<pad name="UD-" x="-19.05" y="-4.445" drill="0.9652"/>
<pad name="UD+" x="-16.51" y="-4.445" drill="0.9652"/>
<pad name="UGND1" x="-13.97" y="-4.445" drill="0.9652"/>
<pad name="UGND2" x="-11.43" y="-4.445" drill="0.9652"/>
<wire x1="-29.21" y1="8.89" x2="31.75" y2="8.89" width="0.3048" layer="21"/>
<wire x1="31.75" y1="-8.89" x2="-29.21" y2="-8.89" width="0.3048" layer="21"/>
<wire x1="8.636" y1="-6.35" x2="-3.556" y2="-6.35" width="0.3048" layer="21"/>
<wire x1="-3.556" y1="-6.35" x2="-3.81" y2="-6.096" width="0.3048" layer="21" curve="-90"/>
<wire x1="-3.81" y1="-6.096" x2="-3.81" y2="6.096" width="0.3048" layer="21"/>
<wire x1="-3.81" y1="6.096" x2="-3.556" y2="6.35" width="0.3048" layer="21" curve="-90"/>
<wire x1="-3.556" y1="6.35" x2="8.636" y2="6.35" width="0.3048" layer="21"/>
<wire x1="8.636" y1="6.35" x2="8.89" y2="6.096" width="0.3048" layer="21" curve="-90"/>
<wire x1="8.89" y1="6.096" x2="8.89" y2="-6.096" width="0.3048" layer="21"/>
<wire x1="8.89" y1="-6.096" x2="8.636" y2="-6.35" width="0.3048" layer="21" curve="-90"/>
<wire x1="31.75" y1="8.89" x2="31.75" y2="-8.89" width="0.3048" layer="21"/>
<wire x1="-25.4" y1="3.81" x2="-27.305" y2="3.81" width="0.3048" layer="21"/>
<wire x1="-27.305" y1="3.81" x2="-28.575" y2="3.81" width="0.3048" layer="21"/>
<wire x1="-28.575" y1="3.81" x2="-29.21" y2="3.81" width="0.3048" layer="21"/>
<wire x1="-29.21" y1="3.81" x2="-30.48" y2="3.81" width="0.3048" layer="21"/>
<wire x1="-30.48" y1="3.81" x2="-30.48" y2="-3.81" width="0.3048" layer="21"/>
<wire x1="-30.48" y1="-3.81" x2="-29.21" y2="-3.81" width="0.3048" layer="21"/>
<wire x1="-29.21" y1="-3.81" x2="-28.575" y2="-3.81" width="0.3048" layer="21"/>
<wire x1="-28.575" y1="-3.81" x2="-27.305" y2="-3.81" width="0.3048" layer="21"/>
<wire x1="-27.305" y1="-3.81" x2="-25.4" y2="-3.81" width="0.3048" layer="21"/>
<wire x1="-25.4" y1="-3.81" x2="-25.4" y2="-3.175" width="0.3048" layer="21"/>
<wire x1="-25.4" y1="-3.175" x2="-25.4" y2="-2.2225" width="0.3048" layer="21"/>
<wire x1="-25.4" y1="-2.2225" x2="-25.4" y2="-1.905" width="0.3048" layer="21"/>
<wire x1="-25.4" y1="-1.905" x2="-25.4" y2="-1.27" width="0.3048" layer="21"/>
<wire x1="-25.4" y1="-1.27" x2="-25.4" y2="-0.635" width="0.3048" layer="21"/>
<wire x1="-25.4" y1="-0.635" x2="-25.4" y2="0" width="0.3048" layer="21"/>
<wire x1="-25.4" y1="0" x2="-25.4" y2="0.635" width="0.3048" layer="21"/>
<wire x1="-25.4" y1="0.635" x2="-25.4" y2="1.27" width="0.3048" layer="21"/>
<wire x1="-25.4" y1="1.27" x2="-25.4" y2="1.905" width="0.3048" layer="21"/>
<wire x1="-25.4" y1="1.905" x2="-25.4" y2="2.2225" width="0.3048" layer="21"/>
<wire x1="-25.4" y1="2.2225" x2="-25.4" y2="3.175" width="0.3048" layer="21"/>
<wire x1="-25.4" y1="3.175" x2="-25.4" y2="3.81" width="0.3048" layer="21"/>
<wire x1="-29.21" y1="8.89" x2="-29.21" y2="3.81" width="0.3048" layer="21"/>
<wire x1="-29.21" y1="-8.89" x2="-29.21" y2="-3.81" width="0.3048" layer="21"/>
<wire x1="19.05" y1="5.08" x2="19.05" y2="6.096" width="0.127" layer="21"/>
<wire x1="19.05" y1="6.096" x2="19.304" y2="6.35" width="0.127" layer="21" curve="-90"/>
<wire x1="19.304" y1="6.35" x2="21.59" y2="6.35" width="0.127" layer="21"/>
<wire x1="21.59" y1="6.35" x2="23.495" y2="6.35" width="0.3048" layer="21"/>
<wire x1="23.495" y1="6.35" x2="25.4" y2="6.35" width="0.127" layer="21"/>
<wire x1="25.4" y1="6.35" x2="27.6225" y2="6.35" width="0.3048" layer="21"/>
<wire x1="27.6225" y1="6.35" x2="30.861" y2="6.35" width="0.3048" layer="21"/>
<wire x1="30.861" y1="6.35" x2="31.115" y2="6.096" width="0.3048" layer="21" curve="-90"/>
<wire x1="31.115" y1="6.096" x2="31.115" y2="5.3975" width="0.3048" layer="21"/>
<wire x1="31.115" y1="5.3975" x2="30.7975" y2="5.08" width="0.3048" layer="21" curve="-90"/>
<wire x1="30.7975" y1="5.08" x2="29.845" y2="5.08" width="0.3048" layer="21"/>
<wire x1="29.845" y1="5.08" x2="29.21" y2="4.445" width="0.3048" layer="21" curve="90"/>
<wire x1="29.21" y1="4.445" x2="29.21" y2="3.175" width="0.3048" layer="21"/>
<wire x1="29.21" y1="3.175" x2="29.21" y2="2.54" width="0.3048" layer="21"/>
<wire x1="29.21" y1="2.54" x2="29.21" y2="1.905" width="0.3048" layer="21"/>
<wire x1="29.21" y1="1.905" x2="29.21" y2="1.27" width="0.3048" layer="21"/>
<wire x1="29.21" y1="1.27" x2="29.21" y2="0.635" width="0.3048" layer="21"/>
<wire x1="29.21" y1="0.635" x2="29.21" y2="0" width="0.3048" layer="21"/>
<wire x1="29.21" y1="0" x2="29.21" y2="-0.635" width="0.3048" layer="21"/>
<wire x1="29.21" y1="-0.635" x2="29.21" y2="-1.27" width="0.3048" layer="21"/>
<wire x1="29.21" y1="-1.27" x2="29.21" y2="-1.905" width="0.3048" layer="21"/>
<wire x1="29.21" y1="-1.905" x2="29.21" y2="-2.54" width="0.3048" layer="21"/>
<wire x1="29.21" y1="-2.54" x2="29.21" y2="-3.175" width="0.3048" layer="21"/>
<wire x1="29.21" y1="-3.175" x2="29.21" y2="-3.81" width="0.3048" layer="21"/>
<wire x1="29.21" y1="-3.81" x2="29.21" y2="-4.445" width="0.3048" layer="21"/>
<wire x1="29.21" y1="-4.445" x2="29.21" y2="-5.08" width="0.3048" layer="21"/>
<wire x1="29.21" y1="-5.08" x2="29.845" y2="-5.715" width="0.3048" layer="21" curve="90"/>
<wire x1="29.845" y1="-5.715" x2="30.7975" y2="-5.715" width="0.3048" layer="21"/>
<wire x1="30.7975" y1="-5.715" x2="31.115" y2="-6.0325" width="0.3048" layer="21" curve="-90"/>
<wire x1="31.115" y1="-6.0325" x2="31.115" y2="-6.096" width="0.3048" layer="21"/>
<wire x1="31.115" y1="-6.096" x2="30.861" y2="-6.35" width="0.3048" layer="21" curve="-90"/>
<wire x1="30.861" y1="-6.35" x2="19.304" y2="-6.35" width="0.3048" layer="21"/>
<wire x1="19.304" y1="-6.35" x2="19.05" y2="-6.096" width="0.3048" layer="21" curve="-90"/>
<wire x1="19.05" y1="-6.096" x2="19.05" y2="5.08" width="0.3048" layer="21"/>
<wire x1="29.21" y1="3.175" x2="30.861" y2="3.175" width="0.127" layer="21"/>
<wire x1="30.861" y1="3.175" x2="31.115" y2="2.921" width="0.127" layer="21" curve="-90"/>
<wire x1="31.115" y1="2.921" x2="31.115" y2="2.794" width="0.127" layer="21"/>
<wire x1="31.115" y1="2.794" x2="30.861" y2="2.54" width="0.127" layer="21" curve="-90"/>
<wire x1="30.861" y1="2.54" x2="29.21" y2="2.54" width="0.127" layer="21"/>
<wire x1="29.21" y1="1.905" x2="30.861" y2="1.905" width="0.127" layer="21"/>
<wire x1="30.861" y1="1.905" x2="31.115" y2="1.651" width="0.127" layer="21" curve="-90"/>
<wire x1="31.115" y1="1.651" x2="31.115" y2="1.524" width="0.127" layer="21"/>
<wire x1="31.115" y1="1.524" x2="30.861" y2="1.27" width="0.127" layer="21" curve="-90"/>
<wire x1="30.861" y1="1.27" x2="29.21" y2="1.27" width="0.127" layer="21"/>
<wire x1="29.21" y1="0.635" x2="30.861" y2="0.635" width="0.127" layer="21"/>
<wire x1="30.861" y1="0.635" x2="31.115" y2="0.381" width="0.127" layer="21" curve="-90"/>
<wire x1="31.115" y1="0.381" x2="31.115" y2="0.254" width="0.127" layer="21"/>
<wire x1="31.115" y1="0.254" x2="30.861" y2="0" width="0.127" layer="21" curve="-90"/>
<wire x1="30.861" y1="0" x2="29.21" y2="0" width="0.127" layer="21"/>
<wire x1="29.21" y1="-0.635" x2="30.861" y2="-0.635" width="0.127" layer="21"/>
<wire x1="30.861" y1="-0.635" x2="31.115" y2="-0.889" width="0.127" layer="21" curve="-90"/>
<wire x1="31.115" y1="-0.889" x2="31.115" y2="-1.016" width="0.127" layer="21"/>
<wire x1="31.115" y1="-1.016" x2="30.861" y2="-1.27" width="0.127" layer="21" curve="-90"/>
<wire x1="30.861" y1="-1.27" x2="29.21" y2="-1.27" width="0.127" layer="21"/>
<wire x1="29.21" y1="-1.905" x2="30.861" y2="-1.905" width="0.127" layer="21"/>
<wire x1="30.861" y1="-1.905" x2="31.115" y2="-2.159" width="0.127" layer="21" curve="-90"/>
<wire x1="31.115" y1="-2.159" x2="31.115" y2="-2.286" width="0.127" layer="21"/>
<wire x1="31.115" y1="-2.286" x2="30.861" y2="-2.54" width="0.127" layer="21" curve="-90"/>
<wire x1="30.861" y1="-2.54" x2="29.21" y2="-2.54" width="0.127" layer="21"/>
<wire x1="29.21" y1="-3.175" x2="30.861" y2="-3.175" width="0.127" layer="21"/>
<wire x1="30.861" y1="-3.175" x2="31.115" y2="-3.429" width="0.127" layer="21" curve="-90"/>
<wire x1="31.115" y1="-3.429" x2="31.115" y2="-3.556" width="0.127" layer="21"/>
<wire x1="31.115" y1="-3.556" x2="30.861" y2="-3.81" width="0.127" layer="21" curve="-90"/>
<wire x1="30.861" y1="-3.81" x2="29.21" y2="-3.81" width="0.127" layer="21"/>
<wire x1="29.21" y1="-4.445" x2="30.861" y2="-4.445" width="0.127" layer="21"/>
<wire x1="30.861" y1="-4.445" x2="31.115" y2="-4.699" width="0.127" layer="21" curve="-90"/>
<wire x1="31.115" y1="-4.699" x2="31.115" y2="-4.826" width="0.127" layer="21"/>
<wire x1="31.115" y1="-4.826" x2="30.861" y2="-5.08" width="0.127" layer="21" curve="-90"/>
<wire x1="30.861" y1="-5.08" x2="29.21" y2="-5.08" width="0.127" layer="21"/>
<wire x1="12.954" y1="-2.54" x2="16.256" y2="-2.54" width="0.127" layer="21"/>
<wire x1="16.256" y1="-2.54" x2="16.51" y2="-2.286" width="0.127" layer="21" curve="90"/>
<wire x1="16.51" y1="-2.286" x2="16.51" y2="2.286" width="0.127" layer="21"/>
<wire x1="16.51" y1="2.286" x2="16.256" y2="2.54" width="0.127" layer="21" curve="90"/>
<wire x1="16.256" y1="2.54" x2="12.954" y2="2.54" width="0.127" layer="21"/>
<wire x1="12.954" y1="2.54" x2="12.7" y2="2.286" width="0.127" layer="21" curve="90"/>
<wire x1="12.7" y1="2.286" x2="12.7" y2="-2.286" width="0.127" layer="21"/>
<wire x1="12.7" y1="-2.286" x2="12.954" y2="-2.54" width="0.127" layer="21" curve="90"/>
<wire x1="14.605" y1="-1.905" x2="13.335" y2="-0.635" width="0.3048" layer="21" curve="-90"/>
<wire x1="13.335" y1="-0.635" x2="13.335" y2="0.635" width="0.3048" layer="21"/>
<wire x1="13.335" y1="0.635" x2="14.605" y2="1.905" width="0.3048" layer="21" curve="-90"/>
<wire x1="14.605" y1="1.905" x2="15.875" y2="0.635" width="0.3048" layer="21" curve="-90"/>
<wire x1="15.875" y1="0.635" x2="15.875" y2="-0.635" width="0.3048" layer="21"/>
<wire x1="15.875" y1="-0.635" x2="14.605" y2="-1.905" width="0.3048" layer="21" curve="-90"/>
<wire x1="-22.86" y1="-3.175" x2="-20.32" y2="-3.175" width="0.127" layer="21"/>
<wire x1="-20.32" y1="-3.175" x2="-10.16" y2="-3.175" width="0.127" layer="21"/>
<wire x1="-10.16" y1="-3.175" x2="-10.16" y2="-5.715" width="0.127" layer="21"/>
<wire x1="-10.16" y1="-5.715" x2="-20.32" y2="-5.715" width="0.127" layer="21"/>
<wire x1="-20.32" y1="-5.715" x2="-22.86" y2="-5.715" width="0.127" layer="21"/>
<wire x1="-22.86" y1="-5.715" x2="-22.86" y2="-3.175" width="0.127" layer="21"/>
<wire x1="-20.32" y1="-3.175" x2="-20.32" y2="-5.715" width="0.127" layer="21"/>
<wire x1="-25.4" y1="0" x2="-24.13" y2="0" width="0.127" layer="21"/>
<wire x1="-25.4" y1="0.635" x2="-24.13" y2="0.635" width="0.127" layer="21"/>
<wire x1="-25.4" y1="1.27" x2="-24.13" y2="1.27" width="0.127" layer="21"/>
<wire x1="-25.4" y1="-0.635" x2="-24.13" y2="-0.635" width="0.127" layer="21"/>
<wire x1="-25.4" y1="-1.27" x2="-24.13" y2="-1.27" width="0.127" layer="21"/>
<text x="2.69875" y="0" size="1.778" layer="21" ratio="12" distance="25" align="center">TEENSY
3.6</text>
<wire x1="19.05" y1="5.08" x2="21.336" y2="5.08" width="0.3048" layer="21"/>
<wire x1="21.336" y1="5.08" x2="21.59" y2="5.334" width="0.3048" layer="21" curve="90"/>
<wire x1="21.59" y1="5.334" x2="21.59" y2="6.35" width="0.3048" layer="21"/>
<wire x1="23.495" y1="6.35" x2="23.495" y2="5.334" width="0.3048" layer="21"/>
<wire x1="23.495" y1="5.334" x2="23.749" y2="5.08" width="0.3048" layer="21" curve="90"/>
<wire x1="23.749" y1="5.08" x2="25.146" y2="5.08" width="0.3048" layer="21"/>
<wire x1="25.146" y1="5.08" x2="25.4" y2="5.334" width="0.3048" layer="21" curve="90"/>
<wire x1="25.4" y1="5.334" x2="25.4" y2="6.35" width="0.3048" layer="21"/>
<wire x1="-25.4" y1="1.905" x2="-24.13" y2="1.905" width="0.127" layer="21"/>
<wire x1="-24.13" y1="1.905" x2="-24.13" y2="3.175" width="0.127" layer="21"/>
<wire x1="-24.13" y1="3.175" x2="-25.4" y2="3.175" width="0.127" layer="21"/>
<wire x1="-25.4" y1="-1.905" x2="-24.13" y2="-1.905" width="0.127" layer="21"/>
<wire x1="-24.13" y1="-1.905" x2="-24.13" y2="-3.175" width="0.127" layer="21"/>
<wire x1="-24.13" y1="-3.175" x2="-25.4" y2="-3.175" width="0.127" layer="21"/>
<wire x1="-28.575" y1="3.81" x2="-28.575" y2="5.08" width="0.127" layer="21"/>
<wire x1="-28.575" y1="5.08" x2="-27.305" y2="5.08" width="0.127" layer="21"/>
<wire x1="-27.305" y1="5.08" x2="-27.305" y2="3.81" width="0.127" layer="21"/>
<wire x1="-28.575" y1="-3.81" x2="-28.575" y2="-5.08" width="0.127" layer="21"/>
<wire x1="-28.575" y1="-5.08" x2="-27.305" y2="-5.08" width="0.127" layer="21"/>
<wire x1="-27.305" y1="-5.08" x2="-27.305" y2="-3.81" width="0.127" layer="21"/>
<wire x1="-29.845" y1="3.175" x2="-28.2575" y2="3.175" width="0.127" layer="21"/>
<wire x1="-28.2575" y1="3.175" x2="-27.94" y2="2.8575" width="0.127" layer="21" curve="-90"/>
<wire x1="-27.94" y1="2.8575" x2="-27.94" y2="2.2225" width="0.127" layer="21"/>
<wire x1="-27.94" y1="2.2225" x2="-28.2575" y2="1.905" width="0.127" layer="21" curve="-90"/>
<wire x1="-28.2575" y1="1.905" x2="-29.845" y2="1.905" width="0.127" layer="21"/>
<wire x1="-29.845" y1="-3.175" x2="-28.2575" y2="-3.175" width="0.127" layer="21"/>
<wire x1="-28.2575" y1="-3.175" x2="-27.94" y2="-2.8575" width="0.127" layer="21" curve="90"/>
<wire x1="-27.94" y1="-2.8575" x2="-27.94" y2="-2.2225" width="0.127" layer="21"/>
<wire x1="-27.94" y1="-2.2225" x2="-28.2575" y2="-1.905" width="0.127" layer="21" curve="90"/>
<wire x1="-28.2575" y1="-1.905" x2="-29.845" y2="-1.905" width="0.127" layer="21"/>
<wire x1="-29.845" y1="3.175" x2="-29.845" y2="1.905" width="0.127" layer="21"/>
<wire x1="-29.845" y1="-1.905" x2="-29.845" y2="-3.175" width="0.127" layer="21"/>
<wire x1="-5.715" y1="-5.715" x2="-5.334" y2="-5.715" width="0.127" layer="21"/>
<wire x1="-5.334" y1="-5.715" x2="-5.08" y2="-5.461" width="0.127" layer="21" curve="90"/>
<wire x1="-5.08" y1="-5.461" x2="-5.08" y2="-5.08" width="0.127" layer="21"/>
<wire x1="-5.08" y1="-5.08" x2="-5.08" y2="-4.445" width="0.127" layer="21"/>
<wire x1="-5.08" y1="-4.445" x2="-5.08" y2="-3.81" width="0.127" layer="21"/>
<wire x1="-5.08" y1="-3.81" x2="-5.08" y2="-3.175" width="0.127" layer="21"/>
<wire x1="-5.08" y1="-3.175" x2="-5.08" y2="-2.794" width="0.127" layer="21"/>
<wire x1="-5.08" y1="-2.794" x2="-5.334" y2="-2.54" width="0.127" layer="21" curve="90"/>
<wire x1="-5.334" y1="-2.54" x2="-5.715" y2="-2.54" width="0.127" layer="21"/>
<wire x1="-5.715" y1="-2.54" x2="-6.35" y2="-2.54" width="0.127" layer="21"/>
<wire x1="-6.35" y1="-2.54" x2="-6.985" y2="-2.54" width="0.127" layer="21"/>
<wire x1="-6.985" y1="-2.54" x2="-7.62" y2="-2.54" width="0.127" layer="21"/>
<wire x1="-7.62" y1="-2.54" x2="-8.001" y2="-2.54" width="0.127" layer="21"/>
<wire x1="-8.001" y1="-2.54" x2="-8.255" y2="-2.794" width="0.127" layer="21" curve="90"/>
<wire x1="-8.255" y1="-2.794" x2="-8.255" y2="-3.175" width="0.127" layer="21"/>
<wire x1="-8.255" y1="-3.175" x2="-8.255" y2="-3.81" width="0.127" layer="21"/>
<wire x1="-8.255" y1="-3.81" x2="-8.255" y2="-4.445" width="0.127" layer="21"/>
<wire x1="-8.255" y1="-4.445" x2="-8.255" y2="-5.08" width="0.127" layer="21"/>
<wire x1="-8.255" y1="-5.08" x2="-8.255" y2="-5.461" width="0.127" layer="21"/>
<wire x1="-8.255" y1="-5.461" x2="-8.001" y2="-5.715" width="0.127" layer="21" curve="90"/>
<wire x1="-8.001" y1="-5.715" x2="-7.62" y2="-5.715" width="0.127" layer="21"/>
<wire x1="-7.62" y1="-5.715" x2="-6.985" y2="-5.715" width="0.127" layer="21"/>
<wire x1="-6.985" y1="-5.715" x2="-6.35" y2="-5.715" width="0.127" layer="21"/>
<wire x1="-6.35" y1="-5.715" x2="-5.715" y2="-5.715" width="0.127" layer="21"/>
<wire x1="-13.335" y1="1.016" x2="-13.335" y2="-1.016" width="0.127" layer="21"/>
<wire x1="-13.335" y1="-1.016" x2="-13.081" y2="-1.27" width="0.127" layer="21" curve="90"/>
<wire x1="-13.081" y1="-1.27" x2="-11.049" y2="-1.27" width="0.127" layer="21"/>
<wire x1="-11.049" y1="-1.27" x2="-10.795" y2="-1.016" width="0.127" layer="21" curve="90"/>
<wire x1="-10.795" y1="-1.016" x2="-10.795" y2="1.016" width="0.127" layer="21"/>
<wire x1="-10.795" y1="1.016" x2="-11.049" y2="1.27" width="0.127" layer="21" curve="90"/>
<wire x1="-11.049" y1="1.27" x2="-13.081" y2="1.27" width="0.127" layer="21"/>
<wire x1="-13.081" y1="1.27" x2="-13.335" y2="1.016" width="0.127" layer="21" curve="90"/>
<wire x1="20.0025" y1="-2.159" x2="20.0025" y2="-2.6035" width="0.127" layer="21"/>
<wire x1="20.0025" y1="-2.6035" x2="20.2565" y2="-2.8575" width="0.127" layer="21" curve="90"/>
<wire x1="20.2565" y1="-2.8575" x2="21.336" y2="-2.8575" width="0.127" layer="21"/>
<wire x1="21.336" y1="-2.8575" x2="21.59" y2="-2.6035" width="0.127" layer="21" curve="90"/>
<wire x1="21.59" y1="-2.6035" x2="21.59" y2="-2.159" width="0.127" layer="21"/>
<wire x1="21.59" y1="-2.159" x2="21.336" y2="-1.905" width="0.127" layer="21" curve="90"/>
<wire x1="21.336" y1="-1.905" x2="20.2565" y2="-1.905" width="0.127" layer="21"/>
<wire x1="20.2565" y1="-1.905" x2="20.0025" y2="-2.159" width="0.127" layer="21" curve="90"/>
<wire x1="20.0025" y1="-3.81" x2="20.0025" y2="-5.3975" width="0.127" layer="21"/>
<wire x1="20.0025" y1="-5.3975" x2="21.59" y2="-5.3975" width="0.127" layer="21"/>
<wire x1="-5.08" y1="-3.81" x2="-4.7625" y2="-3.81" width="0.127" layer="21"/>
<wire x1="-5.08" y1="-4.445" x2="-4.7625" y2="-4.445" width="0.127" layer="21"/>
<wire x1="-5.08" y1="-5.08" x2="-4.7625" y2="-5.08" width="0.127" layer="21"/>
<wire x1="-5.08" y1="-3.175" x2="-4.7625" y2="-3.175" width="0.127" layer="21"/>
<wire x1="-5.715" y1="-2.54" x2="-5.715" y2="-2.2225" width="0.127" layer="21"/>
<wire x1="-6.35" y1="-2.54" x2="-6.35" y2="-2.2225" width="0.127" layer="21"/>
<wire x1="-6.985" y1="-2.54" x2="-6.985" y2="-2.2225" width="0.127" layer="21"/>
<wire x1="-7.62" y1="-2.54" x2="-7.62" y2="-2.2225" width="0.127" layer="21"/>
<wire x1="-8.255" y1="-3.175" x2="-8.5725" y2="-3.175" width="0.127" layer="21"/>
<wire x1="-8.255" y1="-3.81" x2="-8.5725" y2="-3.81" width="0.127" layer="21"/>
<wire x1="-8.255" y1="-4.445" x2="-8.5725" y2="-4.445" width="0.127" layer="21"/>
<wire x1="-8.255" y1="-5.08" x2="-8.5725" y2="-5.08" width="0.127" layer="21"/>
<wire x1="-5.715" y1="-5.715" x2="-5.715" y2="-6.0325" width="0.127" layer="21"/>
<wire x1="-6.35" y1="-5.715" x2="-6.35" y2="-6.0325" width="0.127" layer="21"/>
<wire x1="-6.985" y1="-5.715" x2="-6.985" y2="-6.0325" width="0.127" layer="21"/>
<wire x1="-7.62" y1="-5.715" x2="-7.62" y2="-6.0325" width="0.127" layer="21"/>
<wire x1="27.6225" y1="6.35" x2="27.6225" y2="5.3975" width="0.127" layer="21"/>
<wire x1="27.6225" y1="5.3975" x2="27.94" y2="5.08" width="0.127" layer="21" curve="90"/>
<wire x1="27.94" y1="5.08" x2="28.8925" y2="5.08" width="0.127" layer="21"/>
<wire x1="28.8925" y1="5.08" x2="28.8925" y2="5.3975" width="0.127" layer="21"/>
<wire x1="28.8925" y1="5.3975" x2="29.21" y2="5.715" width="0.127" layer="21" curve="-90"/>
<wire x1="29.21" y1="5.715" x2="29.5275" y2="5.715" width="0.127" layer="21"/>
<wire x1="-25.4" y1="1.27" x2="-26.67" y2="1.27" width="0.127" layer="21"/>
<wire x1="-26.67" y1="1.27" x2="-26.67" y2="3.175" width="0.127" layer="21"/>
<wire x1="-26.67" y1="3.175" x2="-26.204921875" y2="3.175" width="0.127" layer="21"/>
<wire x1="-26.204921875" y1="3.175" x2="-25.94074375" y2="3.033615625" width="0.127" layer="21" curve="-56.310402"/>
<wire x1="-25.94074375" y1="3.033615625" x2="-25.4" y2="2.2225" width="0.127" layer="21"/>
<wire x1="-25.4" y1="-1.27" x2="-26.67" y2="-1.27" width="0.127" layer="21"/>
<wire x1="-26.67" y1="-1.27" x2="-26.67" y2="-3.175" width="0.127" layer="21"/>
<wire x1="-26.67" y1="-3.175" x2="-26.204921875" y2="-3.175" width="0.127" layer="21"/>
<wire x1="-26.204921875" y1="-3.175" x2="-25.94074375" y2="-3.033615625" width="0.127" layer="21" curve="56.310402"/>
<wire x1="-25.94074375" y1="-3.033615625" x2="-25.4" y2="-2.2225" width="0.127" layer="21"/>
</package>
</packages>
</library>
<library name="spook">
<packages>
<package name="WAVESHARE_EPAPER_2.9IN">
<pad name="BUSY" x="0" y="0" drill="1"/>
<pad name="RST" x="0" y="-2.45" drill="1"/>
<pad name="DC" x="0" y="-4.9" drill="1"/>
<pad name="CS" x="0" y="-7.35" drill="1"/>
<pad name="CLK" x="0" y="-9.8" drill="1"/>
<pad name="DIN" x="0" y="-12.25" drill="1"/>
<pad name="GND" x="0" y="-14.7" drill="1"/>
<pad name="VCC" x="0" y="-17.15" drill="1"/>
<text x="2.45" y="0" size="1.27" layer="21" align="center-left">BUSY</text>
<text x="2.45" y="-2.45" size="1.27" layer="21" align="center-left">RST</text>
<text x="2.45" y="-4.9" size="1.27" layer="21" align="center-left">DC</text>
<text x="2.45" y="-7.35" size="1.27" layer="21" align="center-left">CS</text>
<text x="2.45" y="-9.8" size="1.27" layer="21" align="center-left">CLK</text>
<text x="2.45" y="-12.25" size="1.27" layer="21" align="center-left">DIN</text>
<text x="2.45" y="-14.7" size="1.27" layer="21" align="center-left">GND</text>
<text x="2.45" y="-17.15" size="1.27" layer="21" align="center-left">VCC</text>
</package>
<package name="ENCODER">
<pad name="OUT_B" x="-7.5" y="-2.5" drill="1.1"/>
<pad name="OUT_A" x="-7.5" y="2.5" drill="1.1"/>
<pad name="GND_OUT" x="-7.5" y="0" drill="1.1" shape="square"/>
<pad name="SW" x="7" y="2.5" drill="1.1"/>
<pad name="GND_SW" x="7" y="-2.5" drill="1.1" shape="square"/>
<hole x="0" y="4.65" drill="2.1"/>
<hole x="0" y="-4.65" drill="2.1"/>
<circle x="0" y="0" radius="15" width="0.2" layer="25"/>
<text x="-15" y="2" size="1.27" layer="21">OUT A</text>
<text x="-15" y="-3" size="1.27" layer="21">OUT B</text>
<text x="-15" y="-0.5" size="1.27" layer="21">GND</text>
<text x="10" y="-3" size="1.27" layer="21">GND</text>
<text x="10" y="2" size="1.27" layer="21">SWITCH</text>
</package>
</packages>
</library>
</libraries>
<attributes>
</attributes>
<variantdefs>
</variantdefs>
<classes>
<class number="0" name="default" width="0" drill="0">
</class>
</classes>
<designrules name="default">
<description language="en">&lt;b&gt;EAGLE Design Rules&lt;/b&gt;
&lt;p&gt;
The default Design Rules have been set to cover
a wide range of applications. Your particular design
may have different requirements, so please make the
necessary adjustments and save your customized
design rules under a new name.
</description>
<param name="layerSetup" value="(1*16)"/>
<param name="mtCopper" value="0.035mm 0.035mm 0.035mm 0.035mm 0.035mm 0.035mm 0.035mm 0.035mm 0.035mm 0.035mm 0.035mm 0.035mm 0.035mm 0.035mm 0.035mm 0.035mm"/>
<param name="mtIsolate" value="0.15mm 0.15mm 0.2mm 0.15mm 0.2mm 0.15mm 0.2mm 0.15mm 0.2mm 0.15mm 0.2mm 0.15mm 0.2mm 0.15mm 0.2mm"/>
<param name="mdWireWire" value="6mil"/>
<param name="mdWirePad" value="6mil"/>
<param name="mdWireVia" value="6mil"/>
<param name="mdPadPad" value="6mil"/>
<param name="mdPadVia" value="6mil"/>
<param name="mdViaVia" value="6mil"/>
<param name="mdSmdPad" value="6mil"/>
<param name="mdSmdVia" value="6mil"/>
<param name="mdSmdSmd" value="6mil"/>
<param name="mdViaViaSameLayer" value="6mil"/>
<param name="mnLayersViaInSmd" value="2"/>
<param name="mdCopperDimension" value="40mil"/>
<param name="mdDrill" value="6mil"/>
<param name="mdSmdStop" value="0mil"/>
<param name="msWidth" value="6mil"/>
<param name="msDrill" value="0.35mm"/>
<param name="msMicroVia" value="9.99mm"/>
<param name="msBlindViaRatio" value="0.5"/>
<param name="rvPadTop" value="0.25"/>
<param name="rvPadInner" value="0.25"/>
<param name="rvPadBottom" value="0.25"/>
<param name="rvViaOuter" value="0.25"/>
<param name="rvViaInner" value="0.25"/>
<param name="rvMicroViaOuter" value="0.25"/>
<param name="rvMicroViaInner" value="0.25"/>
<param name="rlMinPadTop" value="10mil"/>
<param name="rlMaxPadTop" value="20mil"/>
<param name="rlMinPadInner" value="10mil"/>
<param name="rlMaxPadInner" value="20mil"/>
<param name="rlMinPadBottom" value="10mil"/>
<param name="rlMaxPadBottom" value="20mil"/>
<param name="rlMinViaOuter" value="8mil"/>
<param name="rlMaxViaOuter" value="20mil"/>
<param name="rlMinViaInner" value="8mil"/>
<param name="rlMaxViaInner" value="20mil"/>
<param name="rlMinMicroViaOuter" value="4mil"/>
<param name="rlMaxMicroViaOuter" value="20mil"/>
<param name="rlMinMicroViaInner" value="4mil"/>
<param name="rlMaxMicroViaInner" value="20mil"/>
<param name="psTop" value="-1"/>
<param name="psBottom" value="-1"/>
<param name="psFirst" value="-1"/>
<param name="psElongationLong" value="100"/>
<param name="psElongationOffset" value="100"/>
<param name="mvStopFrame" value="1"/>
<param name="mvCreamFrame" value="0"/>
<param name="mlMinStopFrame" value="4mil"/>
<param name="mlMaxStopFrame" value="4mil"/>
<param name="mlMinCreamFrame" value="0mil"/>
<param name="mlMaxCreamFrame" value="0mil"/>
<param name="mlViaStopLimit" value="0mil"/>
<param name="srRoundness" value="0"/>
<param name="srMinRoundness" value="0mil"/>
<param name="srMaxRoundness" value="0mil"/>
<param name="slThermalIsolate" value="10mil"/>
<param name="slThermalsForVias" value="0"/>
<param name="dpMaxLengthDifference" value="10mm"/>
<param name="dpGapFactor" value="2.5"/>
<param name="checkAngle" value="0"/>
<param name="checkFont" value="1"/>
<param name="checkRestrict" value="1"/>
<param name="checkStop" value="0"/>
<param name="checkValues" value="0"/>
<param name="checkNames" value="1"/>
<param name="checkWireStubs" value="1"/>
<param name="checkPolygonWidth" value="0"/>
<param name="useDiameter" value="13"/>
<param name="maxErrors" value="999999"/>
</designrules>
<autorouter>
<pass name="Default">
<param name="RoutingGrid" value="50mil"/>
<param name="AutoGrid" value="1"/>
<param name="Efforts" value="2"/>
<param name="TopRouterVariant" value="1"/>
<param name="tpViaShape" value="round"/>
<param name="PrefDir.1" value="a"/>
<param name="PrefDir.2" value="0"/>
<param name="PrefDir.3" value="0"/>
<param name="PrefDir.4" value="0"/>
<param name="PrefDir.5" value="0"/>
<param name="PrefDir.6" value="0"/>
<param name="PrefDir.7" value="0"/>
<param name="PrefDir.8" value="0"/>
<param name="PrefDir.9" value="0"/>
<param name="PrefDir.10" value="0"/>
<param name="PrefDir.11" value="0"/>
<param name="PrefDir.12" value="0"/>
<param name="PrefDir.13" value="0"/>
<param name="PrefDir.14" value="0"/>
<param name="PrefDir.15" value="0"/>
<param name="PrefDir.16" value="a"/>
<param name="cfVia" value="8"/>
<param name="cfNonPref" value="5"/>
<param name="cfChangeDir" value="2"/>
<param name="cfOrthStep" value="2"/>
<param name="cfDiagStep" value="3"/>
<param name="cfExtdStep" value="0"/>
<param name="cfBonusStep" value="1"/>
<param name="cfMalusStep" value="1"/>
<param name="cfPadImpact" value="4"/>
<param name="cfSmdImpact" value="4"/>
<param name="cfBusImpact" value="0"/>
<param name="cfHugging" value="3"/>
<param name="cfAvoid" value="4"/>
<param name="cfPolygon" value="10"/>
<param name="cfBase.1" value="0"/>
<param name="cfBase.2" value="1"/>
<param name="cfBase.3" value="1"/>
<param name="cfBase.4" value="1"/>
<param name="cfBase.5" value="1"/>
<param name="cfBase.6" value="1"/>
<param name="cfBase.7" value="1"/>
<param name="cfBase.8" value="1"/>
<param name="cfBase.9" value="1"/>
<param name="cfBase.10" value="1"/>
<param name="cfBase.11" value="1"/>
<param name="cfBase.12" value="1"/>
<param name="cfBase.13" value="1"/>
<param name="cfBase.14" value="1"/>
<param name="cfBase.15" value="1"/>
<param name="cfBase.16" value="0"/>
<param name="mnVias" value="20"/>
<param name="mnSegments" value="9999"/>
<param name="mnExtdSteps" value="9999"/>
<param name="mnRipupLevel" value="10"/>
<param name="mnRipupSteps" value="100"/>
<param name="mnRipupTotal" value="100"/>
</pass>
<pass name="Follow-me" refer="Default" active="yes">
</pass>
<pass name="Busses" refer="Default" active="yes">
<param name="cfNonPref" value="4"/>
<param name="cfBusImpact" value="4"/>
<param name="cfHugging" value="0"/>
<param name="mnVias" value="0"/>
</pass>
<pass name="Route" refer="Default" active="yes">
</pass>
<pass name="Optimize1" refer="Default" active="yes">
<param name="cfVia" value="99"/>
<param name="cfExtdStep" value="10"/>
<param name="cfHugging" value="1"/>
<param name="mnExtdSteps" value="1"/>
<param name="mnRipupLevel" value="0"/>
</pass>
<pass name="Optimize2" refer="Optimize1" active="yes">
<param name="cfNonPref" value="0"/>
<param name="cfChangeDir" value="6"/>
<param name="cfExtdStep" value="0"/>
<param name="cfBonusStep" value="2"/>
<param name="cfMalusStep" value="2"/>
<param name="cfPadImpact" value="2"/>
<param name="cfSmdImpact" value="2"/>
<param name="cfHugging" value="0"/>
</pass>
<pass name="Optimize3" refer="Optimize2" active="yes">
<param name="cfChangeDir" value="8"/>
<param name="cfPadImpact" value="0"/>
<param name="cfSmdImpact" value="0"/>
</pass>
<pass name="Optimize4" refer="Optimize3" active="yes">
<param name="cfChangeDir" value="25"/>
</pass>
</autorouter>
<elements>
<element name="BTN_C1R1" library="cherrymx" package="CHERRY-MX" value="CHERRY-MX" x="47" y="51.5" smashed="yes"/>
<element name="BTN_C1R2" library="cherrymx" package="CHERRY-MX" value="CHERRY-MX" x="47" y="32" smashed="yes"/>
<element name="BTN_C1R3" library="cherrymx" package="CHERRY-MX" value="CHERRY-MX" x="47" y="12.5" smashed="yes"/>
<element name="BTN_C2R1" library="cherrymx" package="CHERRY-MX" value="CHERRY-MX" x="66.5" y="51.5" smashed="yes"/>
<element name="BTN_C2R2" library="cherrymx" package="CHERRY-MX" value="CHERRY-MX" x="66.5" y="32" smashed="yes"/>
<element name="BTN_C2R3" library="cherrymx" package="CHERRY-MX" value="CHERRY-MX" x="66.5" y="12.5" smashed="yes"/>
<element name="BTN_C3R1" library="cherrymx" package="CHERRY-MX" value="CHERRY-MX" x="86" y="51.5" smashed="yes"/>
<element name="BTN_C3R2" library="cherrymx" package="CHERRY-MX" value="CHERRY-MX" x="86" y="32" smashed="yes"/>
<element name="BTN_C3R3" library="cherrymx" package="CHERRY-MX" value="CHERRY-MX" x="86" y="12.5" smashed="yes"/>
<element name="BTN_C4R1" library="cherrymx" package="CHERRY-MX" value="CHERRY-MX" x="105.5" y="51.5" smashed="yes"/>
<element name="BTN_C4R2" library="cherrymx" package="CHERRY-MX" value="CHERRY-MX" x="105.5" y="32" smashed="yes"/>
<element name="BTN_C4R3" library="cherrymx" package="CHERRY-MX" value="CHERRY-MX" x="105.5" y="12.5" smashed="yes"/>
<element name="U$1" library="Teensy356" package="TEENSY_3.5/3.6" value="TEENSY_3.5/3.6" x="19" y="32.6" smashed="yes" rot="R270"/>
<element name="U$2" library="spook" package="WAVESHARE_EPAPER_2.9IN" value="WAVESHARE_EPAPER_2.9IN" x="119" y="19.5" smashed="yes"/>
<element name="U$3" library="spook" package="ENCODER" value="ENCODER" x="133.5" y="32" smashed="yes"/>
</elements>
<signals>
<signal name="DISPLAY_CS">
<contactref element="U$1" pad="10/CS"/>
<contactref element="U$2" pad="CS"/>
<wire x1="12.4968" y1="32.6136" x2="11.43" y2="32.6136" width="0.1524" layer="1"/>
<wire x1="26.67" y1="46.7868" x2="12.4968" y2="32.6136" width="0.1524" layer="1"/>
<wire x1="33.2232" y1="46.7868" x2="26.67" y2="46.7868" width="0.1524" layer="1"/>
<wire x1="44.3484" y1="57.912" x2="33.2232" y2="46.7868" width="0.1524" layer="1"/>
<wire x1="89.0016" y1="57.912" x2="44.3484" y2="57.912" width="0.1524" layer="1"/>
<wire x1="117.9576" y1="28.956" x2="89.0016" y2="57.912" width="0.1524" layer="1"/>
<wire x1="117.9576" y1="13.1064" x2="117.9576" y2="28.956" width="0.1524" layer="1"/>
<wire x1="118.872" y1="12.192" x2="117.9576" y2="13.1064" width="0.1524" layer="1"/>
<wire x1="11.43" y1="32.6136" x2="11.38" y2="32.6" width="0.1524" layer="1"/>
<wire x1="118.872" y1="12.192" x2="119" y2="12.15" width="0.1524" layer="1"/>
</signal>
<signal name="DISPLAY_MOSI">
<contactref element="U$1" pad="11/MOSI"/>
<contactref element="U$2" pad="DIN"/>
<wire x1="11.2776" y1="28.8036" x2="11.2776" y2="30.0228" width="0.1524" layer="16"/>
<wire x1="10.3632" y1="27.8892" x2="11.2776" y2="28.8036" width="0.1524" layer="16"/>
<wire x1="10.3632" y1="11.8872" x2="10.3632" y2="27.8892" width="0.1524" layer="16"/>
<wire x1="11.43" y1="10.8204" x2="10.3632" y2="11.8872" width="0.1524" layer="16"/>
<wire x1="40.9956" y1="10.8204" x2="11.43" y2="10.8204" width="0.1524" layer="16"/>
<wire x1="43.1292" y1="8.6868" x2="40.9956" y2="10.8204" width="0.1524" layer="16"/>
<wire x1="72.0852" y1="8.6868" x2="43.1292" y2="8.6868" width="0.1524" layer="16"/>
<wire x1="117.5004" y1="8.6868" x2="72.0852" y2="8.6868" width="0.1524" layer="1"/>
<wire x1="118.872" y1="7.3152" x2="117.5004" y2="8.6868" width="0.1524" layer="1"/>
<wire x1="11.2776" y1="30.0228" x2="11.38" y2="30.06" width="0.1524" layer="16"/>
<wire x1="118.872" y1="7.3152" x2="119" y2="7.25" width="0.1524" layer="1"/>
<via x="72.0852" y="8.6868" extent="1-16" drill="0.35"/>
</signal>
<signal name="DISPLAY_MISO">
<contactref element="U$1" pad="12/MISO"/>
</signal>
<signal name="DISPLAY_SCK">
<contactref element="U$1" pad="13/SCK"/>
<contactref element="U$2" pad="CLK"/>
<wire x1="26.67" y1="26.3652" x2="26.67" y2="27.432" width="0.1524" layer="16"/>
<wire x1="40.386" y1="12.6492" x2="26.67" y2="26.3652" width="0.1524" layer="16"/>
<wire x1="40.386" y1="11.8872" x2="40.386" y2="12.6492" width="0.1524" layer="16"/>
<wire x1="42.9768" y1="9.2964" x2="40.386" y2="11.8872" width="0.1524" layer="16"/>
<wire x1="72.8472" y1="9.2964" x2="42.9768" y2="9.2964" width="0.1524" layer="16"/>
<wire x1="81.3816" y1="9.2964" x2="72.8472" y2="9.2964" width="0.1524" layer="1"/>
<wire x1="81.6864" y1="8.9916" x2="81.3816" y2="9.2964" width="0.1524" layer="1"/>
<wire x1="118.2624" y1="8.9916" x2="81.6864" y2="8.9916" width="0.1524" layer="1"/>
<wire x1="118.872" y1="9.6012" x2="118.2624" y2="8.9916" width="0.1524" layer="1"/>
<wire x1="26.67" y1="27.432" x2="26.62" y2="27.52" width="0.1524" layer="16"/>
<wire x1="118.872" y1="9.6012" x2="119" y2="9.7" width="0.1524" layer="1"/>
<via x="72.8472" y="9.2964" extent="1-16" drill="0.35"/>
</signal>
<signal name="GND">
<contactref element="U$1" pad="GND"/>
<contactref element="BTN_C1R1" pad="SW1"/>
<contactref element="BTN_C2R1" pad="SW1"/>
<contactref element="BTN_C3R1" pad="SW1"/>
<contactref element="BTN_C4R1" pad="SW1"/>
<contactref element="BTN_C1R2" pad="SW1"/>
<contactref element="BTN_C2R2" pad="SW1"/>
<contactref element="BTN_C3R2" pad="SW1"/>
<contactref element="BTN_C4R2" pad="SW1"/>
<contactref element="BTN_C1R3" pad="SW1"/>
<contactref element="BTN_C2R3" pad="SW1"/>
<contactref element="BTN_C3R3" pad="SW1"/>
<contactref element="BTN_C4R3" pad="SW1"/>
<contactref element="U$2" pad="GND"/>
<contactref element="U$3" pad="GND_OUT"/>
<contactref element="U$3" pad="GND_SW"/>
<wire x1="20.1168" y1="60.5028" x2="11.43" y2="60.5028" width="0.1524" layer="16"/>
<wire x1="26.5176" y1="54.102" x2="20.1168" y2="60.5028" width="0.1524" layer="16"/>
<wire x1="43.1292" y1="54.102" x2="26.5176" y2="54.102" width="0.1524" layer="16"/>
<wire x1="11.43" y1="60.5028" x2="11.38" y2="60.54" width="0.1524" layer="16"/>
<wire x1="43.1292" y1="54.102" x2="43.19" y2="54.04" width="0.1524" layer="16"/>
<wire x1="43.2816" y1="31.0896" x2="43.2816" y2="23.1648" width="0.1524" layer="16"/>
<wire x1="43.2816" y1="23.1648" x2="43.2816" y2="15.0876" width="0.1524" layer="16"/>
<wire x1="43.5864" y1="31.3944" x2="43.2816" y2="31.0896" width="0.1524" layer="16"/>
<wire x1="43.5864" y1="34.1376" x2="43.5864" y2="31.3944" width="0.1524" layer="16"/>
<wire x1="43.2816" y1="34.4424" x2="43.5864" y2="34.1376" width="0.1524" layer="16"/>
<wire x1="43.2816" y1="15.0876" x2="43.19" y2="15.04" width="0.1524" layer="16"/>
<wire x1="43.2816" y1="34.4424" x2="43.19" y2="34.54" width="0.1524" layer="16"/>
<wire x1="62.7888" y1="31.0896" x2="62.7888" y2="23.1648" width="0.1524" layer="16"/>
<wire x1="62.7888" y1="23.1648" x2="62.7888" y2="15.0876" width="0.1524" layer="16"/>
<wire x1="62.9412" y1="31.242" x2="62.7888" y2="31.0896" width="0.1524" layer="16"/>
<wire x1="62.9412" y1="34.29" x2="62.9412" y2="31.242" width="0.1524" layer="16"/>
<wire x1="62.7888" y1="34.4424" x2="62.9412" y2="34.29" width="0.1524" layer="16"/>
<wire x1="62.7888" y1="15.0876" x2="62.69" y2="15.04" width="0.1524" layer="16"/>
<wire x1="62.7888" y1="34.4424" x2="62.69" y2="34.54" width="0.1524" layer="16"/>
<wire x1="62.7888" y1="52.2732" x2="62.7888" y2="53.9496" width="0.1524" layer="16"/>
<wire x1="62.9412" y1="52.1208" x2="62.7888" y2="52.2732" width="0.1524" layer="16"/>
<wire x1="62.9412" y1="34.7472" x2="62.9412" y2="35.2044" width="0.1524" layer="16"/>
<wire x1="62.9412" y1="35.2044" x2="62.9412" y2="52.1208" width="0.1524" layer="16"/>
<wire x1="62.7888" y1="34.5948" x2="62.9412" y2="34.7472" width="0.1524" layer="16"/>
<wire x1="62.7888" y1="53.9496" x2="62.69" y2="54.04" width="0.1524" layer="16"/>
<wire x1="62.7888" y1="34.5948" x2="62.69" y2="34.54" width="0.1524" layer="16"/>
<wire x1="62.7888" y1="23.1648" x2="43.2816" y2="23.1648" width="0.1524" layer="16"/>
<wire x1="43.2816" y1="52.4256" x2="43.2816" y2="53.9496" width="0.1524" layer="1"/>
<wire x1="43.5864" y1="52.1208" x2="43.2816" y2="52.4256" width="0.1524" layer="1"/>
<wire x1="43.5864" y1="34.8996" x2="43.5864" y2="52.1208" width="0.1524" layer="1"/>
<wire x1="43.2816" y1="34.5948" x2="43.5864" y2="34.8996" width="0.1524" layer="1"/>
<wire x1="43.2816" y1="53.9496" x2="43.19" y2="54.04" width="0.1524" layer="1"/>
<wire x1="43.2816" y1="34.5948" x2="43.19" y2="34.54" width="0.1524" layer="1"/>
<wire x1="138.0744" y1="31.8516" x2="126.0348" y2="31.8516" width="0.1524" layer="16"/>
<wire x1="140.3604" y1="29.5656" x2="138.0744" y2="31.8516" width="0.1524" layer="16"/>
<wire x1="126.0348" y1="31.8516" x2="126" y2="32" width="0.1524" layer="16"/>
<wire x1="140.3604" y1="29.5656" x2="140.5" y2="29.5" width="0.1524" layer="16"/>
<wire x1="101.8032" y1="52.2732" x2="101.8032" y2="53.9496" width="0.1524" layer="1"/>
<wire x1="102.2604" y1="51.816" x2="101.8032" y2="52.2732" width="0.1524" layer="1"/>
<wire x1="102.2604" y1="50.292" x2="102.2604" y2="51.816" width="0.1524" layer="1"/>
<wire x1="120.5484" y1="32.004" x2="102.2604" y2="50.292" width="0.1524" layer="1"/>
<wire x1="125.8824" y1="32.004" x2="120.5484" y2="32.004" width="0.1524" layer="1"/>
<wire x1="101.8032" y1="53.9496" x2="101.69" y2="54.04" width="0.1524" layer="1"/>
<wire x1="125.8824" y1="32.004" x2="126" y2="32" width="0.1524" layer="1"/>
<wire x1="108.6612" y1="4.8768" x2="118.872" y2="4.8768" width="0.1524" layer="16"/>
<wire x1="101.9556" y1="11.5824" x2="108.6612" y2="4.8768" width="0.1524" layer="16"/>
<wire x1="101.9556" y1="14.7828" x2="101.9556" y2="11.5824" width="0.1524" layer="16"/>
<wire x1="101.8032" y1="14.9352" x2="101.9556" y2="14.7828" width="0.1524" layer="16"/>
<wire x1="118.872" y1="4.8768" x2="119" y2="4.8" width="0.1524" layer="16"/>
<wire x1="101.8032" y1="14.9352" x2="101.69" y2="15.04" width="0.1524" layer="16"/>
<wire x1="82.296" y1="31.0896" x2="82.296" y2="15.0876" width="0.1524" layer="1"/>
<wire x1="82.4484" y1="31.242" x2="82.296" y2="31.0896" width="0.1524" layer="1"/>
<wire x1="82.4484" y1="34.29" x2="82.4484" y2="31.242" width="0.1524" layer="1"/>
<wire x1="82.296" y1="34.4424" x2="82.4484" y2="34.29" width="0.1524" layer="1"/>
<wire x1="82.296" y1="15.0876" x2="82.19" y2="15.04" width="0.1524" layer="1"/>
<wire x1="82.296" y1="34.4424" x2="82.19" y2="34.54" width="0.1524" layer="1"/>
<wire x1="82.296" y1="52.2732" x2="82.296" y2="53.9496" width="0.1524" layer="1"/>
<wire x1="82.4484" y1="52.1208" x2="82.296" y2="52.2732" width="0.1524" layer="1"/>
<wire x1="82.4484" y1="34.7472" x2="82.4484" y2="35.2044" width="0.1524" layer="1"/>
<wire x1="82.4484" y1="35.2044" x2="82.4484" y2="52.1208" width="0.1524" layer="1"/>
<wire x1="82.296" y1="34.5948" x2="82.4484" y2="34.7472" width="0.1524" layer="1"/>
<wire x1="82.296" y1="53.9496" x2="82.19" y2="54.04" width="0.1524" layer="1"/>
<wire x1="82.296" y1="34.5948" x2="82.19" y2="34.54" width="0.1524" layer="1"/>
<wire x1="87.7824" y1="34.5948" x2="101.6508" y2="34.5948" width="0.1524" layer="1"/>
<wire x1="87.1728" y1="35.2044" x2="87.7824" y2="34.5948" width="0.1524" layer="1"/>
<wire x1="82.4484" y1="35.2044" x2="87.1728" y2="35.2044" width="0.1524" layer="1"/>
<wire x1="101.6508" y1="34.5948" x2="101.69" y2="34.54" width="0.1524" layer="1"/>
<wire x1="82.4484" y1="35.2044" x2="82.19" y2="34.54" width="0.1524" layer="1"/>
<wire x1="101.8032" y1="31.0896" x2="101.8032" y2="15.0876" width="0.1524" layer="1"/>
<wire x1="101.9556" y1="31.242" x2="101.8032" y2="31.0896" width="0.1524" layer="1"/>
<wire x1="101.9556" y1="34.29" x2="101.9556" y2="31.242" width="0.1524" layer="1"/>
<wire x1="101.8032" y1="34.4424" x2="101.9556" y2="34.29" width="0.1524" layer="1"/>
<wire x1="101.8032" y1="15.0876" x2="101.69" y2="15.04" width="0.1524" layer="1"/>
<wire x1="101.8032" y1="34.4424" x2="101.69" y2="34.54" width="0.1524" layer="1"/>
<wire x1="120.5484" y1="6.4008" x2="120.5484" y2="32.004" width="0.1524" layer="1"/>
<wire x1="119.0244" y1="4.8768" x2="120.5484" y2="6.4008" width="0.1524" layer="1"/>
<wire x1="119.0244" y1="4.8768" x2="119" y2="4.8" width="0.1524" layer="1"/>
<wire x1="81.534" y1="35.2044" x2="62.9412" y2="35.2044" width="0.1524" layer="16"/>
<wire x1="82.1436" y1="34.5948" x2="81.534" y2="35.2044" width="0.1524" layer="16"/>
<wire x1="62.9412" y1="35.2044" x2="62.69" y2="34.54" width="0.1524" layer="16"/>
<wire x1="82.1436" y1="34.5948" x2="82.19" y2="34.54" width="0.1524" layer="16"/>
</signal>
<signal name="TRG_C1R1">
<contactref element="U$1" pad="24"/>
<contactref element="BTN_C1R1" pad="SW2"/>
<wire x1="11.43" y1="23.622" x2="11.43" y2="22.5552" width="0.1524" layer="1"/>
<wire x1="14.7828" y1="26.9748" x2="11.43" y2="23.622" width="0.1524" layer="1"/>
<wire x1="14.7828" y1="32.3088" x2="14.7828" y2="26.9748" width="0.1524" layer="1"/>
<wire x1="26.67" y1="44.196" x2="14.7828" y2="32.3088" width="0.1524" layer="1"/>
<wire x1="31.0896" y1="44.196" x2="26.67" y2="44.196" width="0.1524" layer="1"/>
<wire x1="43.434" y1="56.5404" x2="31.0896" y2="44.196" width="0.1524" layer="1"/>
<wire x1="49.53" y1="56.5404" x2="43.434" y2="56.5404" width="0.1524" layer="1"/>
<wire x1="11.43" y1="22.5552" x2="11.38" y2="22.44" width="0.1524" layer="1"/>
<wire x1="49.53" y1="56.5404" x2="49.54" y2="56.58" width="0.1524" layer="1"/>
</signal>
<signal name="TRG_C2R1">
<contactref element="U$1" pad="25"/>
<contactref element="BTN_C2R1" pad="SW2"/>
<wire x1="12.4968" y1="19.9644" x2="11.43" y2="19.9644" width="0.1524" layer="16"/>
<wire x1="26.67" y1="34.1376" x2="12.4968" y2="19.9644" width="0.1524" layer="16"/>
<wire x1="40.5384" y1="34.1376" x2="26.67" y2="34.1376" width="0.1524" layer="16"/>
<wire x1="47.0916" y1="40.6908" x2="40.5384" y2="34.1376" width="0.1524" layer="16"/>
<wire x1="47.5488" y1="40.6908" x2="47.0916" y2="40.6908" width="0.1524" layer="16"/>
<wire x1="63.3984" y1="56.5404" x2="47.5488" y2="40.6908" width="0.1524" layer="16"/>
<wire x1="69.0372" y1="56.5404" x2="63.3984" y2="56.5404" width="0.1524" layer="16"/>
<wire x1="11.43" y1="19.9644" x2="11.38" y2="19.9" width="0.1524" layer="16"/>
<wire x1="69.0372" y1="56.5404" x2="69.04" y2="56.58" width="0.1524" layer="16"/>
</signal>
<signal name="TRG_C3R1">
<contactref element="U$1" pad="26"/>
<contactref element="BTN_C3R1" pad="SW2"/>
<wire x1="11.43" y1="18.4404" x2="11.43" y2="17.3736" width="0.1524" layer="1"/>
<wire x1="15.0876" y1="22.098" x2="11.43" y2="18.4404" width="0.1524" layer="1"/>
<wire x1="15.0876" y1="30.1752" x2="15.0876" y2="22.098" width="0.1524" layer="1"/>
<wire x1="26.67" y1="41.7576" x2="15.0876" y2="30.1752" width="0.1524" layer="1"/>
<wire x1="29.1084" y1="41.7576" x2="26.67" y2="41.7576" width="0.1524" layer="1"/>
<wire x1="42.672" y1="55.3212" x2="29.1084" y2="41.7576" width="0.1524" layer="1"/>
<wire x1="87.1728" y1="55.3212" x2="42.672" y2="55.3212" width="0.1524" layer="1"/>
<wire x1="88.392" y1="56.5404" x2="87.1728" y2="55.3212" width="0.1524" layer="1"/>
<wire x1="11.43" y1="17.3736" x2="11.38" y2="17.36" width="0.1524" layer="1"/>
<wire x1="88.392" y1="56.5404" x2="88.54" y2="56.58" width="0.1524" layer="1"/>
</signal>
<signal name="TRG_C4R1">
<contactref element="U$1" pad="27"/>
<contactref element="BTN_C4R1" pad="SW2"/>
<wire x1="11.2776" y1="16.002" x2="11.2776" y2="14.9352" width="0.1524" layer="1"/>
<wire x1="10.3632" y1="16.9164" x2="11.2776" y2="16.002" width="0.1524" layer="1"/>
<wire x1="10.3632" y1="50.7492" x2="10.3632" y2="16.9164" width="0.1524" layer="1"/>
<wire x1="11.43" y1="51.816" x2="10.3632" y2="50.7492" width="0.1524" layer="1"/>
<wire x1="13.2588" y1="51.816" x2="11.43" y2="51.816" width="0.1524" layer="1"/>
<wire x1="14.6304" y1="53.1876" x2="13.2588" y2="51.816" width="0.1524" layer="1"/>
<wire x1="17.3736" y1="53.1876" x2="14.6304" y2="53.1876" width="0.1524" layer="1"/>
<wire x1="23.4696" y1="59.2836" x2="17.3736" y2="53.1876" width="0.1524" layer="1"/>
<wire x1="105.3084" y1="59.2836" x2="23.4696" y2="59.2836" width="0.1524" layer="1"/>
<wire x1="107.8992" y1="56.6928" x2="105.3084" y2="59.2836" width="0.1524" layer="1"/>
<wire x1="11.2776" y1="14.9352" x2="11.38" y2="14.82" width="0.1524" layer="1"/>
<wire x1="107.8992" y1="56.6928" x2="108.04" y2="56.58" width="0.1524" layer="1"/>
</signal>
<signal name="TRG_C1R2">
<contactref element="U$1" pad="28"/>
<contactref element="BTN_C1R2" pad="SW2"/>
<wire x1="11.43" y1="13.4112" x2="11.43" y2="12.3444" width="0.1524" layer="16"/>
<wire x1="12.954" y1="14.9352" x2="11.43" y2="13.4112" width="0.1524" layer="16"/>
<wire x1="12.954" y1="15.24" x2="12.954" y2="14.9352" width="0.1524" layer="16"/>
<wire x1="26.67" y1="28.956" x2="12.954" y2="15.24" width="0.1524" layer="16"/>
<wire x1="35.814" y1="28.956" x2="26.67" y2="28.956" width="0.1524" layer="16"/>
<wire x1="43.8912" y1="37.0332" x2="35.814" y2="28.956" width="0.1524" layer="16"/>
<wire x1="49.53" y1="37.0332" x2="43.8912" y2="37.0332" width="0.1524" layer="16"/>
<wire x1="11.43" y1="12.3444" x2="11.38" y2="12.28" width="0.1524" layer="16"/>
<wire x1="49.53" y1="37.0332" x2="49.54" y2="37.08" width="0.1524" layer="16"/>
</signal>
<signal name="TRG_C2R2">
<contactref element="BTN_C2R2" pad="SW2"/>
<contactref element="U$1" pad="29"/>
<wire x1="22.2504" y1="9.7536" x2="11.43" y2="9.7536" width="0.1524" layer="1"/>
<wire x1="26.2128" y1="13.716" x2="22.2504" y2="9.7536" width="0.1524" layer="1"/>
<wire x1="39.624" y1="13.716" x2="26.2128" y2="13.716" width="0.1524" layer="1"/>
<wire x1="62.9412" y1="37.0332" x2="39.624" y2="13.716" width="0.1524" layer="1"/>
<wire x1="69.0372" y1="37.0332" x2="62.9412" y2="37.0332" width="0.1524" layer="1"/>
<wire x1="11.43" y1="9.7536" x2="11.38" y2="9.74" width="0.1524" layer="1"/>
<wire x1="69.0372" y1="37.0332" x2="69.04" y2="37.08" width="0.1524" layer="1"/>
</signal>
<signal name="TRG_C3R2">
<contactref element="BTN_C3R2" pad="SW2"/>
<contactref element="U$1" pad="18/A4/SDA"/>
<contactref element="U$1" pad="30"/>
<wire x1="11.2776" y1="8.382" x2="11.2776" y2="7.3152" width="0.1524" layer="1"/>
<wire x1="10.3632" y1="9.2964" x2="11.2776" y2="8.382" width="0.1524" layer="1"/>
<wire x1="10.3632" y1="10.2108" x2="10.3632" y2="9.2964" width="0.1524" layer="1"/>
<wire x1="11.43" y1="11.2776" x2="10.3632" y2="10.2108" width="0.1524" layer="1"/>
<wire x1="11.8872" y1="11.2776" x2="11.43" y2="11.2776" width="0.1524" layer="1"/>
<wire x1="15.3924" y1="14.7828" x2="11.8872" y2="11.2776" width="0.1524" layer="1"/>
<wire x1="15.3924" y1="28.956" x2="15.3924" y2="14.7828" width="0.1524" layer="1"/>
<wire x1="26.5176" y1="40.0812" x2="15.3924" y2="28.956" width="0.1524" layer="1"/>
<wire x1="11.2776" y1="7.3152" x2="11.38" y2="7.2" width="0.1524" layer="1"/>
<wire x1="26.5176" y1="40.0812" x2="26.62" y2="40.22" width="0.1524" layer="1"/>
<wire x1="88.392" y1="39.0144" x2="88.392" y2="37.1856" width="0.1524" layer="16"/>
<wire x1="69.4944" y1="57.912" x2="88.392" y2="39.0144" width="0.1524" layer="16"/>
<wire x1="64.008" y1="57.912" x2="69.4944" y2="57.912" width="0.1524" layer="16"/>
<wire x1="47.0916" y1="40.9956" x2="64.008" y2="57.912" width="0.1524" layer="16"/>
<wire x1="27.432" y1="40.9956" x2="47.0916" y2="40.9956" width="0.1524" layer="16"/>
<wire x1="26.67" y1="40.2336" x2="27.432" y2="40.9956" width="0.1524" layer="16"/>
<wire x1="88.392" y1="37.1856" x2="88.54" y2="37.08" width="0.1524" layer="16"/>
<wire x1="26.67" y1="40.2336" x2="26.62" y2="40.22" width="0.1524" layer="16"/>
</signal>
<signal name="TRG_C4R2">
<contactref element="U$1" pad="31/A12"/>
<contactref element="BTN_C4R2" pad="SW2"/>
<wire x1="22.7076" y1="4.7244" x2="11.43" y2="4.7244" width="0.1524" layer="16"/>
<wire x1="26.2128" y1="8.2296" x2="22.7076" y2="4.7244" width="0.1524" layer="16"/>
<wire x1="71.628" y1="8.2296" x2="26.2128" y2="8.2296" width="0.1524" layer="16"/>
<wire x1="71.7804" y1="8.0772" x2="71.628" y2="8.2296" width="0.1524" layer="16"/>
<wire x1="72.5424" y1="8.0772" x2="71.7804" y2="8.0772" width="0.1524" layer="16"/>
<wire x1="101.4984" y1="37.0332" x2="72.5424" y2="8.0772" width="0.1524" layer="16"/>
<wire x1="107.8992" y1="37.0332" x2="101.4984" y2="37.0332" width="0.1524" layer="16"/>
<wire x1="11.43" y1="4.7244" x2="11.38" y2="4.66" width="0.1524" layer="16"/>
<wire x1="107.8992" y1="37.0332" x2="108.04" y2="37.08" width="0.1524" layer="16"/>
</signal>
<signal name="TRG_C1R3">
<contactref element="U$1" pad="32/A13"/>
<contactref element="BTN_C1R3" pad="SW2"/>
<wire x1="15.0876" y1="2.1336" x2="11.43" y2="2.1336" width="0.1524" layer="1"/>
<wire x1="26.3652" y1="13.4112" x2="15.0876" y2="2.1336" width="0.1524" layer="1"/>
<wire x1="39.7764" y1="13.4112" x2="26.3652" y2="13.4112" width="0.1524" layer="1"/>
<wire x1="43.8912" y1="17.526" x2="39.7764" y2="13.4112" width="0.1524" layer="1"/>
<wire x1="49.53" y1="17.526" x2="43.8912" y2="17.526" width="0.1524" layer="1"/>
<wire x1="11.43" y1="2.1336" x2="11.38" y2="2.12" width="0.1524" layer="1"/>
<wire x1="49.53" y1="17.526" x2="49.54" y2="17.58" width="0.1524" layer="1"/>
</signal>
<signal name="TRG_C2R3">
<contactref element="U$1" pad="33/A14"/>
<contactref element="BTN_C2R3" pad="SW2"/>
<wire x1="48.006" y1="2.1336" x2="26.67" y2="2.1336" width="0.1524" layer="1"/>
<wire x1="63.3984" y1="17.526" x2="48.006" y2="2.1336" width="0.1524" layer="1"/>
<wire x1="69.0372" y1="17.526" x2="63.3984" y2="17.526" width="0.1524" layer="1"/>
<wire x1="26.67" y1="2.1336" x2="26.62" y2="2.12" width="0.1524" layer="1"/>
<wire x1="69.0372" y1="17.526" x2="69.04" y2="17.58" width="0.1524" layer="1"/>
</signal>
<signal name="TRG_C3R3">
<contactref element="U$1" pad="34/A15"/>
<contactref element="BTN_C3R3" pad="SW2"/>
<wire x1="70.104" y1="4.7244" x2="26.67" y2="4.7244" width="0.1524" layer="16"/>
<wire x1="82.9056" y1="17.526" x2="70.104" y2="4.7244" width="0.1524" layer="16"/>
<wire x1="88.392" y1="17.526" x2="82.9056" y2="17.526" width="0.1524" layer="16"/>
<wire x1="26.67" y1="4.7244" x2="26.62" y2="4.66" width="0.1524" layer="16"/>
<wire x1="88.392" y1="17.526" x2="88.54" y2="17.58" width="0.1524" layer="16"/>
</signal>
<signal name="TRG_C4R3">
<contactref element="U$1" pad="35/A16"/>
<contactref element="BTN_C4R3" pad="SW2"/>
<wire x1="72.2376" y1="7.3152" x2="26.67" y2="7.3152" width="0.1524" layer="16"/>
<wire x1="83.82" y1="18.8976" x2="72.2376" y2="7.3152" width="0.1524" layer="16"/>
<wire x1="106.68" y1="18.8976" x2="83.82" y2="18.8976" width="0.1524" layer="16"/>
<wire x1="107.8992" y1="17.6784" x2="106.68" y2="18.8976" width="0.1524" layer="16"/>
<wire x1="26.67" y1="7.3152" x2="26.62" y2="7.2" width="0.1524" layer="16"/>
<wire x1="107.8992" y1="17.6784" x2="108.04" y2="17.58" width="0.1524" layer="16"/>
</signal>
<signal name="VCC">
<contactref element="U$1" pad="3V3_LO"/>
<contactref element="U$2" pad="VCC"/>
<wire x1="60.96" y1="55.3212" x2="26.67" y2="55.3212" width="0.1524" layer="16"/>
<wire x1="63.8556" y1="58.2168" x2="60.96" y2="55.3212" width="0.1524" layer="16"/>
<wire x1="88.6968" y1="58.2168" x2="63.8556" y2="58.2168" width="0.1524" layer="16"/>
<wire x1="120.0912" y1="26.8224" x2="88.6968" y2="58.2168" width="0.1524" layer="16"/>
<wire x1="120.0912" y1="3.5052" x2="120.0912" y2="26.8224" width="0.1524" layer="16"/>
<wire x1="119.0244" y1="2.4384" x2="120.0912" y2="3.5052" width="0.1524" layer="16"/>
<wire x1="26.67" y1="55.3212" x2="26.62" y2="55.46" width="0.1524" layer="16"/>
<wire x1="119.0244" y1="2.4384" x2="119" y2="2.35" width="0.1524" layer="16"/>
</signal>
<signal name="DISPLAY_DC">
<contactref element="U$1" pad="8"/>
<contactref element="U$2" pad="DC"/>
<wire x1="25.2984" y1="37.7952" x2="11.43" y2="37.7952" width="0.1524" layer="16"/>
<wire x1="26.2128" y1="38.7096" x2="25.2984" y2="37.7952" width="0.1524" layer="16"/>
<wire x1="44.196" y1="38.7096" x2="26.2128" y2="38.7096" width="0.1524" layer="16"/>
<wire x1="69.1896" y1="38.7096" x2="44.196" y2="38.7096" width="0.1524" layer="1"/>
<wire x1="79.4004" y1="28.4988" x2="69.1896" y2="38.7096" width="0.1524" layer="1"/>
<wire x1="79.4004" y1="11.7348" x2="79.4004" y2="28.4988" width="0.1524" layer="1"/>
<wire x1="81.8388" y1="9.2964" x2="79.4004" y2="11.7348" width="0.1524" layer="1"/>
<wire x1="117.1956" y1="9.2964" x2="81.8388" y2="9.2964" width="0.1524" layer="1"/>
<wire x1="119.0244" y1="11.1252" x2="117.1956" y2="9.2964" width="0.1524" layer="1"/>
<wire x1="119.4816" y1="11.1252" x2="119.0244" y2="11.1252" width="0.1524" layer="1"/>
<wire x1="120.0912" y1="11.7348" x2="119.4816" y2="11.1252" width="0.1524" layer="1"/>
<wire x1="120.0912" y1="13.4112" x2="120.0912" y2="11.7348" width="0.1524" layer="1"/>
<wire x1="119.0244" y1="14.478" x2="120.0912" y2="13.4112" width="0.1524" layer="1"/>
<wire x1="11.43" y1="37.7952" x2="11.38" y2="37.68" width="0.1524" layer="16"/>
<wire x1="119.0244" y1="14.478" x2="119" y2="14.6" width="0.1524" layer="1"/>
<via x="44.196" y="38.7096" extent="1-16" drill="0.35"/>
</signal>
<signal name="DISPLAY_RST">
<contactref element="U$1" pad="7"/>
<contactref element="U$2" pad="RST"/>
<wire x1="11.2776" y1="39.0144" x2="11.2776" y2="40.0812" width="0.1524" layer="16"/>
<wire x1="10.0584" y1="37.7952" x2="11.2776" y2="39.0144" width="0.1524" layer="16"/>
<wire x1="10.0584" y1="4.572" x2="10.0584" y2="37.7952" width="0.1524" layer="16"/>
<wire x1="10.9728" y1="3.6576" x2="10.0584" y2="4.572" width="0.1524" layer="16"/>
<wire x1="88.5444" y1="3.6576" x2="10.9728" y2="3.6576" width="0.1524" layer="16"/>
<wire x1="101.1936" y1="16.3068" x2="88.5444" y2="3.6576" width="0.1524" layer="16"/>
<wire x1="118.2624" y1="16.3068" x2="101.1936" y2="16.3068" width="0.1524" layer="16"/>
<wire x1="118.872" y1="16.9164" x2="118.2624" y2="16.3068" width="0.1524" layer="16"/>
<wire x1="11.2776" y1="40.0812" x2="11.38" y2="40.22" width="0.1524" layer="16"/>
<wire x1="118.872" y1="16.9164" x2="119" y2="17.05" width="0.1524" layer="16"/>
</signal>
<signal name="DISPLAY_BUSY">
<contactref element="U$1" pad="6"/>
<contactref element="U$2" pad="BUSY"/>
<wire x1="15.0876" y1="42.8244" x2="11.43" y2="42.8244" width="0.1524" layer="1"/>
<wire x1="24.0792" y1="51.816" x2="15.0876" y2="42.8244" width="0.1524" layer="1"/>
<wire x1="37.7952" y1="51.816" x2="24.0792" y2="51.816" width="0.1524" layer="1"/>
<wire x1="44.196" y1="58.2168" x2="37.7952" y2="51.816" width="0.1524" layer="1"/>
<wire x1="89.154" y1="58.2168" x2="44.196" y2="58.2168" width="0.1524" layer="1"/>
<wire x1="118.872" y1="28.4988" x2="89.154" y2="58.2168" width="0.1524" layer="1"/>
<wire x1="118.872" y1="19.5072" x2="118.872" y2="28.4988" width="0.1524" layer="1"/>
<wire x1="11.43" y1="42.8244" x2="11.38" y2="42.76" width="0.1524" layer="1"/>
<wire x1="118.872" y1="19.5072" x2="119" y2="19.5" width="0.1524" layer="1"/>
</signal>
<signal name="ENCODER_OUT_A">
<contactref element="U$1" pad="3/CANTX"/>
<contactref element="U$3" pad="OUT_A"/>
<wire x1="15.0876" y1="50.4444" x2="11.43" y2="50.4444" width="0.1524" layer="1"/>
<wire x1="23.622" y1="58.9788" x2="15.0876" y2="50.4444" width="0.1524" layer="1"/>
<wire x1="103.7844" y1="58.9788" x2="23.622" y2="58.9788" width="0.1524" layer="1"/>
<wire x1="109.728" y1="53.0352" x2="103.7844" y2="58.9788" width="0.1524" layer="1"/>
<wire x1="111.252" y1="53.0352" x2="109.728" y2="53.0352" width="0.1524" layer="1"/>
<wire x1="125.8824" y1="38.4048" x2="111.252" y2="53.0352" width="0.1524" layer="1"/>
<wire x1="125.8824" y1="34.5948" x2="125.8824" y2="38.4048" width="0.1524" layer="1"/>
<wire x1="11.43" y1="50.4444" x2="11.38" y2="50.38" width="0.1524" layer="1"/>
<wire x1="125.8824" y1="34.5948" x2="126" y2="34.5" width="0.1524" layer="1"/>
</signal>
<signal name="ENCODER_OUT_B">
<contactref element="U$1" pad="4/CANRX"/>
<contactref element="U$3" pad="OUT_B"/>
<wire x1="17.526" y1="47.8536" x2="11.43" y2="47.8536" width="0.1524" layer="1"/>
<wire x1="26.67" y1="56.9976" x2="17.526" y2="47.8536" width="0.1524" layer="1"/>
<wire x1="42.5196" y1="56.9976" x2="26.67" y2="56.9976" width="0.1524" layer="1"/>
<wire x1="44.0436" y1="58.5216" x2="42.5196" y2="56.9976" width="0.1524" layer="1"/>
<wire x1="102.87" y1="58.5216" x2="44.0436" y2="58.5216" width="0.1524" layer="1"/>
<wire x1="108.966" y1="52.4256" x2="102.87" y2="58.5216" width="0.1524" layer="1"/>
<wire x1="108.966" y1="49.9872" x2="108.966" y2="52.4256" width="0.1524" layer="1"/>
<wire x1="125.8824" y1="33.0708" x2="108.966" y2="49.9872" width="0.1524" layer="1"/>
<wire x1="126.9492" y1="33.0708" x2="125.8824" y2="33.0708" width="0.1524" layer="1"/>
<wire x1="127.1016" y1="32.9184" x2="126.9492" y2="33.0708" width="0.1524" layer="1"/>
<wire x1="127.1016" y1="30.6324" x2="127.1016" y2="32.9184" width="0.1524" layer="1"/>
<wire x1="126.0348" y1="29.5656" x2="127.1016" y2="30.6324" width="0.1524" layer="1"/>
<wire x1="11.43" y1="47.8536" x2="11.38" y2="47.84" width="0.1524" layer="1"/>
<wire x1="126.0348" y1="29.5656" x2="126" y2="29.5" width="0.1524" layer="1"/>
</signal>
<signal name="ENCODER_SW">
<contactref element="U$1" pad="2"/>
<contactref element="U$3" pad="SW"/>
<wire x1="11.8872" y1="53.0352" x2="11.43" y2="53.0352" width="0.1524" layer="1"/>
<wire x1="20.4216" y1="61.5696" x2="11.8872" y2="53.0352" width="0.1524" layer="1"/>
<wire x1="113.3856" y1="61.5696" x2="20.4216" y2="61.5696" width="0.1524" layer="1"/>
<wire x1="140.3604" y1="34.5948" x2="113.3856" y2="61.5696" width="0.1524" layer="1"/>
<wire x1="11.43" y1="53.0352" x2="11.38" y2="52.92" width="0.1524" layer="1"/>
<wire x1="140.3604" y1="34.5948" x2="140.5" y2="34.5" width="0.1524" layer="1"/>
</signal>
</signals>
<mfgpreviewcolors>
<mfgpreviewcolor name="soldermaskcolor" color="0xC8008000"/>
<mfgpreviewcolor name="silkscreencolor" color="0xFFFEFEFE"/>
<mfgpreviewcolor name="backgroundcolor" color="0xFF282828"/>
<mfgpreviewcolor name="coppercolor" color="0xFFFFBF00"/>
<mfgpreviewcolor name="substratecolor" color="0xFF786E46"/>
</mfgpreviewcolors>
</board>
</drawing>
<compatibility>
<note version="6.3" minversion="6.2.2" severity="warning">
Since Version 6.2.2 text objects can contain more than one line,
which will not be processed correctly with this version.
</note>
<note version="8.3" severity="warning">
Since Version 8.3, EAGLE supports Fusion synchronisation.
This feature will not be available in this version and saving
the document will break the link to the Fusion PCB feature.
</note>
</compatibility>
</eagle>
